chisel/KmeansAndMesh/sbt/Offloaded.vcd
$timescale 1ps $end
$scope module Offloaded $end
$var wire 1 N1 reset $end
$var wire 1 N61 io_out_ready $end
$var wire 1 N73 io_in_valid $end
$var wire 32 N79 io_in_bits $end
$var wire 4 N135 io_pcIn_bits_pcType $end
$var wire 1 N139 io_pcIn_bits_request $end
$var wire 1 N143 io_pcIn_valid $end
$var wire 8 N151 io_pcIn_bits_portId $end
$var wire 16 N155 io_pcIn_bits_moduleId $end
$var wire 16 N159 io_pcIn_bits_pcValue $end
$var wire 1 N173 io_in_ready $end
$var wire 1 N176 io_out_valid $end
$var wire 32 N184 io_out_bits $end
$var wire 1 N187 io_pcOut_valid $end
$var wire 16 N190 io_pcOut_bits_moduleId $end
$var wire 1 N193 io_pcOut_bits_request $end
$var wire 8 N196 io_pcOut_bits_portId $end
$var wire 16 N199 io_pcOut_bits_pcValue $end
$var wire 4 N202 io_pcOut_bits_pcType $end
$scope module gOffloadedComponent_1 $end
$var wire 1 N2 reset $end
$var wire 1 N62 io_out_ready $end
$var wire 1 N74 io_in_valid $end
$var wire 32 N80 io_in_bits $end
$var wire 4 N136 io_pcIn_bits_pcType $end
$var wire 1 N140 io_pcIn_bits_request $end
$var wire 1 N144 io_pcIn_valid $end
$var wire 8 N152 io_pcIn_bits_portId $end
$var wire 16 N156 io_pcIn_bits_moduleId $end
$var wire 16 N160 io_pcIn_bits_pcValue $end
$var wire 1 N172 io_in_ready $end
$var wire 1 N175 io_out_valid $end
$var wire 32 N183 io_out_bits $end
$var wire 1 N186 io_pcOut_valid $end
$var wire 16 N189 io_pcOut_bits_moduleId $end
$var wire 1 N192 io_pcOut_bits_request $end
$var wire 8 N195 io_pcOut_bits_portId $end
$var wire 16 N198 io_pcOut_bits_pcValue $end
$var wire 4 N201 io_pcOut_bits_pcType $end
$scope module gReplicatedComponent_1 $end
$var wire 1 N5 io_pcOut_bits_request $end
$var wire 16 N8 io_pcOut_bits_moduleId $end
$var wire 1 N11 io_pcOut_valid $end
$var wire 8 N17 io_pcOut_bits_portId $end
$var wire 4 N21 io_pcOut_bits_pcType $end
$var wire 1 N28 mainOff_constOff_rep_ready $end
$var wire 1 N36 mainOff_constOff_req_valid $end
$var wire 16 N43 io_pcOut_bits_pcValue $end
$var wire 1 N47 reset $end
$var wire 1 N49 mainOff_constOff_rep_valid $end
$var wire 1 N53 mainOff_constOff_req_ready $end
$var wire 1 N63 io_out_ready $end
$var wire 1 N75 io_in_valid $end
$var wire 32 N81 io_in_bits $end
$var wire 32 N89 mainOff_constOff_rep_bits $end
$var wire 4 N137 io_pcIn_bits_pcType $end
$var wire 1 N141 io_pcIn_bits_request $end
$var wire 1 N145 io_pcIn_valid $end
$var wire 8 N153 io_pcIn_bits_portId $end
$var wire 16 N157 io_pcIn_bits_moduleId $end
$var wire 16 N161 io_pcIn_bits_pcValue $end
$var wire 1 N171 io_in_ready $end
$var wire 1 N174 io_out_valid $end
$var wire 32 N182 io_out_bits $end
$scope module IncThroughOffloadgComponent_2 $end
$var wire 1 N25 io_off_constOff_rep_ready $end
$var wire 1 N33 io_off_constOff_req_valid $end
$var wire 1 N57 io_out_valid $end
$var wire 1 N68 io_in_ready $end
$var wire 4 N98 io_pcOut_bits_pcType $end
$var wire 1 N100 io_pcOut_bits_request $end
$var wire 1 N102 io_pcOut_valid $end
$var wire 8 N108 io_pcOut_bits_portId $end
$var wire 16 N110 io_pcOut_bits_moduleId $end
$var wire 16 N112 io_pcOut_bits_pcValue $end
$var wire 1 N122 reset $end
$var wire 32 N124 io_in_bits $end
$var wire 1 N126 io_in_valid $end
$var wire 32 N127 inputReg $end
$var wire 32 N129 io_off_constOff_rep_bits $end
$var wire 1 N131 io_off_constOff_rep_valid $end
$var wire 1 N133 io_off_constOff_req_ready $end
$var wire 32 N134 offReg $end
$var wire 4 N138 pcIn0_bits_pcType $end
$var wire 1 N142 pcIn0_bits_request $end
$var wire 1 N146 pcIn0_valid $end
$var wire 16 N147 R16 $end
$var wire 1 N149 io_out_ready $end
$var wire 16 N150 R17 $end
$var wire 8 N154 pcIn0_bits_portId $end
$var wire 16 N158 pcIn0_bits_moduleId $end
$var wire 16 N162 pcIn0_bits_pcValue $end
$var wire 16 N163 R18 $end
$var wire 8 N164 R19 $end
$var wire 32 N165 counter $end
$var wire 3 N166 state $end
$var wire 1 N167 R20 $end
$var wire 16 N168 R21 $end
$var wire 1 N169 R22 $end
$var wire 4 N170 R23 $end
$var wire 32 N179 io_out_bits $end
$upscope $end
$scope module IncThroughOffloadgComponent_3 $end
$var wire 1 N4 pcOutN_bits_request $end
$var wire 16 N7 pcOutN_bits_moduleId $end
$var wire 1 N10 pcOutN_valid $end
$var wire 8 N16 pcOutN_bits_portId $end
$var wire 4 N20 pcOutN_bits_pcType $end
$var wire 1 N23 io_off_constOff_rep_ready $end
$var wire 1 N31 io_off_constOff_req_valid $end
$var wire 16 N42 pcOutN_bits_pcValue $end
$var wire 1 N59 io_out_valid $end
$var wire 1 N70 io_in_ready $end
$var wire 1 N78 reset $end
$var wire 32 N84 io_in_bits $end
$var wire 1 N86 io_in_valid $end
$var wire 32 N87 inputReg $end
$var wire 32 N92 io_off_constOff_rep_bits $end
$var wire 1 N94 io_off_constOff_rep_valid $end
$var wire 1 N96 io_off_constOff_req_ready $end
$var wire 32 N97 offReg $end
$var wire 4 N99 io_pcIn_bits_pcType $end
$var wire 1 N101 io_pcIn_bits_request $end
$var wire 1 N103 io_pcIn_valid $end
$var wire 16 N104 R8 $end
$var wire 1 N106 io_out_ready $end
$var wire 16 N107 R9 $end
$var wire 8 N109 io_pcIn_bits_portId $end
$var wire 16 N111 io_pcIn_bits_moduleId $end
$var wire 16 N113 io_pcIn_bits_pcValue $end
$var wire 16 N114 R10 $end
$var wire 8 N115 R11 $end
$var wire 32 N116 counter $end
$var wire 3 N117 state $end
$var wire 1 N118 R12 $end
$var wire 16 N119 R13 $end
$var wire 1 N120 R14 $end
$var wire 4 N121 R15 $end
$var wire 32 N177 io_out_bits $end
$upscope $end
$scope module RRDistributer $end
$var wire 1 N67 reset $end
$var wire 1 N69 io_out_0_ready $end
$var wire 1 N71 io_out_1_ready $end
$var wire 1 N72 io_in_ready $end
$var wire 1 N76 io_in_valid $end
$var wire 1 N77 last_grant $end
$var wire 32 N82 io_in_bits $end
$var wire 32 N83 io_out_1_bits $end
$var wire 1 N85 io_out_1_valid $end
$var wire 32 N123 io_out_0_bits $end
$var wire 1 N125 io_out_0_valid $end
$upscope $end
$scope module RRArbiter $end
$var wire 1 N56 reset $end
$var wire 1 N58 io_in_0_valid $end
$var wire 1 N60 io_in_1_valid $end
$var wire 1 N64 io_out_ready $end
$var wire 1 N65 io_out_valid $end
$var wire 1 N66 last_grant $end
$var wire 1 N105 io_in_1_ready $end
$var wire 1 N148 io_in_0_ready $end
$var wire 32 N178 io_in_1_bits $end
$var wire 32 N180 io_in_0_bits $end
$var wire 32 N181 io_out_bits $end
$upscope $end
$scope module RRArbiter_1 $end
$var wire 1 N32 io_in_1_valid $end
$var wire 1 N34 io_in_0_valid $end
$var wire 1 N35 io_out_valid $end
$var wire 1 N52 reset $end
$var wire 1 N54 io_out_ready $end
$var wire 1 N55 last_grant $end
$var wire 1 N95 io_in_1_ready $end
$var wire 1 N132 io_in_0_ready $end
$upscope $end
$scope module RRDistributer_1 $end
$var wire 1 N24 io_out_1_ready $end
$var wire 1 N26 io_out_0_ready $end
$var wire 1 N27 io_in_ready $end
$var wire 1 N48 reset $end
$var wire 1 N50 io_in_valid $end
$var wire 1 N51 last_grant $end
$var wire 32 N90 io_in_bits $end
$var wire 32 N91 io_out_1_bits $end
$var wire 1 N93 io_out_1_valid $end
$var wire 32 N128 io_out_0_bits $end
$var wire 1 N130 io_out_0_valid $end
$upscope $end
$upscope $end
$scope module SendConstantgComonent_1 $end
$var wire 32 N0 outputData $end
$var wire 1 N3 reset $end
$var wire 1 N6 io_pcIn_bits_request $end
$var wire 16 N9 io_pcIn_bits_moduleId $end
$var wire 1 N12 io_pcIn_valid $end
$var wire 1 N13 R0 $end
$var wire 16 N14 R1 $end
$var wire 1 N15 R2 $end
$var wire 8 N18 io_pcIn_bits_portId $end
$var wire 8 N19 R3 $end
$var wire 4 N22 io_pcIn_bits_pcType $end
$var wire 1 N29 io_out_ready $end
$var wire 1 N30 io_in_ready $end
$var wire 1 N37 io_in_valid $end
$var wire 16 N38 R4 $end
$var wire 1 N39 outputValid $end
$var wire 1 N40 io_out_valid $end
$var wire 16 N41 R5 $end
$var wire 16 N44 io_pcIn_bits_pcValue $end
$var wire 16 N45 R6 $end
$var wire 4 N46 R7 $end
$var wire 32 N88 io_out_bits $end
$var wire 1 N185 io_pcOut_valid $end
$var wire 16 N188 io_pcOut_bits_moduleId $end
$var wire 1 N191 io_pcOut_bits_request $end
$var wire 8 N194 io_pcOut_bits_portId $end
$var wire 16 N197 io_pcOut_bits_pcValue $end
$var wire 4 N200 io_pcOut_bits_pcType $end
$upscope $end
$upscope $end
$upscope $end
$enddefinitions $end
$dumpvars
$end
#0
b00000000000000000000000000000010 N0
b0 N2
b0 N3
b1 N4
b1 N5
b1 N6
b0000000000000000 N7
b0000000000000000 N8
b0000000000000000 N9
b0 N10
b0 N11
b0 N12
b0 N13
b0000000000000000 N14
b1 N15
b00000000 N16
b00000000 N17
b00000000 N18
b00000000 N19
b0000 N20
b0000 N21
b0000 N22
b1 N23
b1 N24
b1 N25
b1 N26
b1 N27
b1 N28
b1 N29
b1 N30
b0 N31
b0 N32
b0 N33
b0 N34
b0 N35
b0 N36
b0 N37
b0000000000000000 N38
b0 N39
b0 N40
b0000000000000000 N41
b0000000000000000 N42
b0000000000000000 N43
b0000000000000000 N44
b0000000000000000 N45
b0000 N46
b0 N47
b0 N48
b0 N49
b0 N50
b0 N51
b0 N52
b1 N53
b1 N54
b0 N55
b0 N56
b0 N57
b0 N58
b0 N59
b0 N60
b0 N61
b0 N62
b0 N63
b0 N64
b0 N65
b0 N66
b0 N67
b1 N68
b1 N69
b1 N70
b1 N71
b1 N72
b0 N73
b0 N74
b0 N75
b0 N76
b0 N77
b0 N78
b00000000000000000000000000000000 N79
b00000000000000000000000000000000 N80
b00000000000000000000000000000000 N81
b00000000000000000000000000000000 N82
b00000000000000000000000000000000 N83
b00000000000000000000000000000000 N84
b0 N85
b0 N86
b00000000000000000000000000000000 N87
b00000000000000000000000000000010 N88
b00000000000000000000000000000010 N89
b00000000000000000000000000000010 N90
b00000000000000000000000000000010 N91
b00000000000000000000000000000010 N92
b0 N93
b0 N94
b1 N95
b1 N96
b00000000000000000000000000000000 N97
b0000 N98
b0000 N99
b1 N100
b1 N101
b0 N102
b0 N103
b0000000000000000 N104
b0 N105
b0 N106
b0000000000000000 N107
b00000000 N108
b00000000 N109
b0000000000000000 N110
b0000000000000000 N111
b0000000000000000 N112
b0000000000000000 N113
b0000000000000000 N114
b00000000 N115
b00000000000000000000000000000010 N116
b000 N117
b0 N118
b0000000000000000 N119
b1 N120
b0000 N121
b0 N122
b00000000000000000000000000000000 N123
b00000000000000000000000000000000 N124
b0 N125
b0 N126
b00000000000000000000000000000000 N127
b00000000000000000000000000000010 N128
b00000000000000000000000000000010 N129
b0 N130
b0 N131
b1 N132
b1 N133
b00000000000000000000000000000000 N134
b0010 N135
b0010 N136
b0010 N137
b0010 N138
b0 N139
b0 N140
b0 N141
b0 N142
b0 N143
b0 N144
b0 N145
b0 N146
b0000000000000000 N147
b0 N148
b0 N149
b0000000000000000 N150
b00000000 N151
b00000000 N152
b00000000 N153
b00000000 N154
b0000000000000000 N155
b0000000000000000 N156
b0000000000000000 N157
b0000000000000000 N158
b0000000000000000 N159
b0000000000000000 N160
b0000000000000000 N161
b0000000000000000 N162
b0000000000000000 N163
b00000000 N164
b00000000000000000000000000000010 N165
b000 N166
b0 N167
b0000000000000000 N168
b0 N169
b0010 N170
b1 N171
b1 N172
b1 N173
b0 N174
b0 N175
b0 N176
b00000000000000000000000000000000 N177
b00000000000000000000000000000000 N178
b00000000000000000000000000000000 N179
b00000000000000000000000000000000 N180
b00000000000000000000000000000000 N181
b00000000000000000000000000000000 N182
b00000000000000000000000000000000 N183
b00000000000000000000000000000000 N184
b0 N185
b0 N186
b0 N187
b0000000000000000 N188
b0000000000000000 N189
b0000000000000000 N190
b1 N191
b1 N192
b1 N193
b00000000 N194
b00000000 N195
b00000000 N196
b0000000000000000 N197
b0000000000000000 N198
b0000000000000000 N199
b0000 N200
b0000 N201
b0000 N202
#1
b0010 N98
b0010 N99
b0 N100
b0 N101
b0 N120
b0010 N121
#2
b0 N4
b0 N5
b0 N6
b0 N15
b0010 N20
b0010 N21
b0010 N22
b0010 N46
#3
b0 N191
b0 N192
b0 N193
b0010 N200
b0010 N201
b0010 N202
#4
#5
b1 N139
b1 N140
b1 N141
b1 N142
b1 N143
b1 N144
b1 N145
b1 N146
b1 N167
b1 N169
#6
b1 N100
b1 N101
b1 N102
b1 N103
b1 N118
b1 N120
b0 N143
b0 N144
b0 N145
b0 N146
b0 N167
#7
b1 N4
b1 N5
b1 N6
b1 N10
b1 N11
b1 N12
b1 N13
b1 N15
b0 N102
b0 N103
b0 N118
#8
b0 N10
b0 N11
b0 N12
b0 N13
b1 N185
b1 N186
b1 N187
b1 N191
b1 N192
b1 N193
#9
b1 N61
b1 N62
b1 N63
b1 N64
b1 N73
b1 N74
b1 N75
b1 N76
b1 N77
b00000000000000000000000000000001 N79
b00000000000000000000000000000001 N80
b00000000000000000000000000000001 N81
b00000000000000000000000000000001 N82
b00000000000000000000000000000001 N83
b00000000000000000000000000000001 N84
b1 N85
b1 N86
b00000000000000000000000000000001 N87
b1 N105
b1 N106
b001 N117
b00000000000000000000000000000001 N123
b00000000000000000000000000000001 N124
b1 N148
b1 N149
b0 N185
b0 N186
b0 N187
#10
b1 N31
b1 N32
b1 N35
b1 N36
b1 N37
b1 N39
b1 N55
b0 N70
b0 N71
b0 N73
b0 N74
b0 N75
b0 N76
b00000000000000000000000000000000 N79
b00000000000000000000000000000000 N80
b00000000000000000000000000000000 N81
b00000000000000000000000000000000 N82
b00000000000000000000000000000000 N83
b00000000000000000000000000000000 N84
b0 N85
b0 N86
b010 N117
b00000000000000000000000000000000 N123
b00000000000000000000000000000000 N124
b0 N132
b0 N133
b00000000000000000000000000000001 N177
b00000000000000000000000000000001 N178
b00000000000000000000000000000001 N181
b00000000000000000000000000000001 N182
b00000000000000000000000000000001 N183
b00000000000000000000000000000001 N184
#11
b0 N31
b0 N32
b0 N35
b0 N36
b0 N37
b0 N39
b1 N40
b1 N49
b1 N50
b1 N51
b1 N93
b1 N94
b00000000000000000000000000000010 N97
b011 N117
b1 N132
b1 N133
#12
b0 N40
b0 N49
b0 N50
b0 N93
b0 N94
b00000000000000000000000000000001 N116
b00000000000000000000000000000011 N177
b00000000000000000000000000000011 N178
b00000000000000000000000000000011 N181
b00000000000000000000000000000011 N182
b00000000000000000000000000000011 N183
b00000000000000000000000000000011 N184
#13
b1 N73
b1 N74
b1 N75
b1 N76
b0 N77
b00000000000000000000000000000010 N79
b00000000000000000000000000000010 N80
b00000000000000000000000000000010 N81
b00000000000000000000000000000010 N82
b00000000000000000000000000000010 N83
b00000000000000000000000000000010 N84
b00000000000000000000000000000000 N116
b00000000000000000000000000000010 N123
b00000000000000000000000000000010 N124
b1 N125
b1 N126
b00000000000000000000000000000010 N127
b001 N166
#14
b1 N33
b1 N34
b1 N35
b1 N36
b1 N37
b1 N39
b0 N55
b0 N68
b0 N69
b0 N72
b0 N73
b0 N74
b0 N75
b0 N76
b00000000000000000000000000000000 N79
b00000000000000000000000000000000 N80
b00000000000000000000000000000000 N81
b00000000000000000000000000000000 N82
b00000000000000000000000000000000 N83
b00000000000000000000000000000000 N84
b0 N95
b0 N96
b00000000000000000000000000000010 N116
b100 N117
b00000000000000000000000000000000 N123
b00000000000000000000000000000000 N124
b0 N125
b0 N126
b010 N166
b0 N171
b0 N172
b0 N173
b00000000000000000000000000000010 N179
b00000000000000000000000000000010 N180
#15
b0 N23
b0 N24
b0 N33
b0 N34
b0 N35
b0 N36
b0 N37
b0 N39
b1 N40
b1 N49
b1 N50
b0 N51
b1 N59
b1 N60
b1 N65
b1 N66
b1 N95
b1 N96
b000 N117
b1 N130
b1 N131
b00000000000000000000000000000010 N134
b0 N148
b0 N149
b011 N166
b1 N174
b1 N175
b1 N176
#16
b1 N23
b1 N24
b0 N40
b0 N49
b0 N50
b0 N59
b0 N60
b0 N65
b1 N70
b1 N71
b1 N72
b0 N130
b0 N131
b1 N148
b1 N149
b00000000000000000000000000000001 N165
b1 N171
b1 N172
b1 N173
b0 N174
b0 N175
b0 N176
b00000000000000000000000000000100 N179
b00000000000000000000000000000100 N180
#17
b1 N73
b1 N74
b1 N75
b1 N76
b1 N77
b00000000000000000000000000000100 N79
b00000000000000000000000000000100 N80
b00000000000000000000000000000100 N81
b00000000000000000000000000000100 N82
b00000000000000000000000000000100 N83
b00000000000000000000000000000100 N84
b1 N85
b1 N86
b00000000000000000000000000000100 N87
b001 N117
b00000000000000000000000000000100 N123
b00000000000000000000000000000100 N124
b00000000000000000000000000000000 N165
#18
b1 N31
b1 N32
b1 N35
b1 N36
b1 N37
b1 N39
b1 N55
b0 N70
b0 N71
b0 N72
b0 N73
b0 N74
b0 N75
b0 N76
b00000000000000000000000000000000 N79
b00000000000000000000000000000000 N80
b00000000000000000000000000000000 N81
b00000000000000000000000000000000 N82
b00000000000000000000000000000000 N83
b00000000000000000000000000000000 N84
b0 N85
b0 N86
b010 N117
b00000000000000000000000000000000 N123
b00000000000000000000000000000000 N124
b0 N132
b0 N133
b00000000000000000000000000000010 N165
b100 N166
b0 N171
b0 N172
b0 N173
b00000000000000000000000000000110 N177
b00000000000000000000000000000110 N178
b00000000000000000000000000000110 N181
b00000000000000000000000000000110 N182
b00000000000000000000000000000110 N183
b00000000000000000000000000000110 N184
#19
b0 N25
b0 N26
b0 N31
b0 N32
b0 N35
b0 N36
b0 N37
b0 N39
b1 N40
b1 N49
b1 N50
b1 N51
b1 N57
b1 N58
b1 N65
b0 N66
b1 N93
b1 N94
b0 N105
b0 N106
b011 N117
b1 N132
b1 N133
b000 N166
b1 N174
b1 N175
b1 N176
b00000000000000000000000000000100 N181
b00000000000000000000000000000100 N182
b00000000000000000000000000000100 N183
b00000000000000000000000000000100 N184
#20
b1 N25
b1 N26
b0 N40
b0 N49
b0 N50
b0 N57
b0 N58
b0 N65
b1 N68
b1 N69
b1 N72
b0 N93
b0 N94
b1 N105
b1 N106
b00000000000000000000000000000001 N116
b1 N171
b1 N172
b1 N173
b0 N174
b0 N175
b0 N176
b00000000000000000000000000000110 N181
b00000000000000000000000000000110 N182
b00000000000000000000000000000110 N183
b00000000000000000000000000000110 N184
#21
b1 N73
b1 N74
b1 N75
b1 N76
b0 N77
b00000000000000000000000000001000 N79
b00000000000000000000000000001000 N80
b00000000000000000000000000001000 N81
b00000000000000000000000000001000 N82
b00000000000000000000000000001000 N83
b00000000000000000000000000001000 N84
b00000000000000000000000000000000 N116
b00000000000000000000000000001000 N123
b00000000000000000000000000001000 N124
b1 N125
b1 N126
b00000000000000000000000000001000 N127
b001 N166
#22
b1 N33
b1 N34
b1 N35
b1 N36
b1 N37
b1 N39
b0 N55
b0 N68
b0 N69
b0 N72
b0 N73
b0 N74
b0 N75
b0 N76
b00000000000000000000000000000000 N79
b00000000000000000000000000000000 N80
b00000000000000000000000000000000 N81
b00000000000000000000000000000000 N82
b00000000000000000000000000000000 N83
b00000000000000000000000000000000 N84
b0 N95
b0 N96
b00000000000000000000000000000010 N116
b100 N117
b00000000000000000000000000000000 N123
b00000000000000000000000000000000 N124
b0 N125
b0 N126
b010 N166
b0 N171
b0 N172
b0 N173
b00000000000000000000000000001010 N179
b00000000000000000000000000001010 N180
#23
b0 N23
b0 N24
b0 N33
b0 N34
b0 N35
b0 N36
b0 N37
b0 N39
b1 N40
b1 N49
b1 N50
b0 N51
b1 N59
b1 N60
b1 N65
b1 N66
b1 N95
b1 N96
b000 N117
b1 N130
b1 N131
b0 N148
b0 N149
b011 N166
b1 N174
b1 N175
b1 N176
#24
b1 N23
b1 N24
b0 N40
b0 N49
b0 N50
b0 N59
b0 N60
b0 N65
b1 N70
b1 N71
b1 N72
b0 N130
b0 N131
b1 N148
b1 N149
b00000000000000000000000000000001 N165
b1 N171
b1 N172
b1 N173
b0 N174
b0 N175
b0 N176
#25
b1 N73
b1 N74
b1 N75
b1 N76
b1 N77
b00000000000000000000000000000001 N79
b00000000000000000000000000000001 N80
b00000000000000000000000000000001 N81
b00000000000000000000000000000001 N82
b00000000000000000000000000000001 N83
b00000000000000000000000000000001 N84
b1 N85
b1 N86
b00000000000000000000000000000001 N87
b001 N117
b00000000000000000000000000000001 N123
b00000000000000000000000000000001 N124
b00000000000000000000000000000000 N165
#26
b1 N31
b1 N32
b1 N35
b1 N36
b1 N37
b1 N39
b1 N55
b0 N70
b0 N71
b0 N72
b0 N73
b0 N74
b0 N75
b0 N76
b00000000000000000000000000000000 N79
b00000000000000000000000000000000 N80
b00000000000000000000000000000000 N81
b00000000000000000000000000000000 N82
b00000000000000000000000000000000 N83
b00000000000000000000000000000000 N84
b0 N85
b0 N86
b010 N117
b00000000000000000000000000000000 N123
b00000000000000000000000000000000 N124
b0 N132
b0 N133
b00000000000000000000000000000010 N165
b100 N166
b0 N171
b0 N172
b0 N173
b00000000000000000000000000000011 N177
b00000000000000000000000000000011 N178
b00000000000000000000000000000011 N181
b00000000000000000000000000000011 N182
b00000000000000000000000000000011 N183
b00000000000000000000000000000011 N184
#27
b0 N25
b0 N26
b0 N31
b0 N32
b0 N35
b0 N36
b0 N37
b0 N39
b1 N40
b1 N49
b1 N50
b1 N51
b1 N57
b1 N58
b1 N65
b0 N66
b1 N93
b1 N94
b0 N105
b0 N106
b011 N117
b1 N132
b1 N133
b000 N166
b1 N174
b1 N175
b1 N176
b00000000000000000000000000001010 N181
b00000000000000000000000000001010 N182
b00000000000000000000000000001010 N183
b00000000000000000000000000001010 N184
#28
b1 N25
b1 N26
b0 N40
b0 N49
b0 N50
b0 N57
b0 N58
b0 N65
b1 N68
b1 N69
b1 N72
b0 N93
b0 N94
b1 N105
b1 N106
b00000000000000000000000000000001 N116
b1 N171
b1 N172
b1 N173
b0 N174
b0 N175
b0 N176
b00000000000000000000000000000011 N181
b00000000000000000000000000000011 N182
b00000000000000000000000000000011 N183
b00000000000000000000000000000011 N184
#29
b1 N73
b1 N74
b1 N75
b1 N76
b0 N77
b00000000000000000000000000000010 N79
b00000000000000000000000000000010 N80
b00000000000000000000000000000010 N81
b00000000000000000000000000000010 N82
b00000000000000000000000000000010 N83
b00000000000000000000000000000010 N84
b00000000000000000000000000000000 N116
b00000000000000000000000000000010 N123
b00000000000000000000000000000010 N124
b1 N125
b1 N126
b00000000000000000000000000000010 N127
b001 N166
#30
b1 N33
b1 N34
b1 N35
b1 N36
b1 N37
b1 N39
b0 N55
b0 N68
b0 N69
b0 N72
b0 N73
b0 N74
b0 N75
b0 N76
b00000000000000000000000000000000 N79
b00000000000000000000000000000000 N80
b00000000000000000000000000000000 N81
b00000000000000000000000000000000 N82
b00000000000000000000000000000000 N83
b00000000000000000000000000000000 N84
b0 N95
b0 N96
b00000000000000000000000000000010 N116
b100 N117
b00000000000000000000000000000000 N123
b00000000000000000000000000000000 N124
b0 N125
b0 N126
b010 N166
b0 N171
b0 N172
b0 N173
b00000000000000000000000000000100 N179
b00000000000000000000000000000100 N180
#31
b0 N23
b0 N24
b0 N33
b0 N34
b0 N35
b0 N36
b0 N37
b0 N39
b1 N40
b1 N49
b1 N50
b0 N51
b1 N59
b1 N60
b1 N65
b1 N66
b1 N95
b1 N96
b000 N117
b1 N130
b1 N131
b0 N148
b0 N149
b011 N166
b1 N174
b1 N175
b1 N176
#32
b1 N23
b1 N24
b0 N40
b0 N49
b0 N50
b0 N59
b0 N60
b0 N65
b1 N70
b1 N71
b1 N72
b0 N130
b0 N131
b1 N148
b1 N149
b00000000000000000000000000000001 N165
b1 N171
b1 N172
b1 N173
b0 N174
b0 N175
b0 N176
#33
b1 N73
b1 N74
b1 N75
b1 N76
b1 N77
b00000000000000000000000000000100 N79
b00000000000000000000000000000100 N80
b00000000000000000000000000000100 N81
b00000000000000000000000000000100 N82
b00000000000000000000000000000100 N83
b00000000000000000000000000000100 N84
b1 N85
b1 N86
b00000000000000000000000000000100 N87
b001 N117
b00000000000000000000000000000100 N123
b00000000000000000000000000000100 N124
b00000000000000000000000000000000 N165
#34
b1 N31
b1 N32
b1 N35
b1 N36
b1 N37
b1 N39
b1 N55
b0 N70
b0 N71
b0 N72
b0 N73
b0 N74
b0 N75
b0 N76
b00000000000000000000000000000000 N79
b00000000000000000000000000000000 N80
b00000000000000000000000000000000 N81
b00000000000000000000000000000000 N82
b00000000000000000000000000000000 N83
b00000000000000000000000000000000 N84
b0 N85
b0 N86
b010 N117
b00000000000000000000000000000000 N123
b00000000000000000000000000000000 N124
b0 N132
b0 N133
b00000000000000000000000000000010 N165
b100 N166
b0 N171
b0 N172
b0 N173
b00000000000000000000000000000110 N177
b00000000000000000000000000000110 N178
b00000000000000000000000000000110 N181
b00000000000000000000000000000110 N182
b00000000000000000000000000000110 N183
b00000000000000000000000000000110 N184
#35
b0 N25
b0 N26
b0 N31
b0 N32
b0 N35
b0 N36
b0 N37
b0 N39
b1 N40
b1 N49
b1 N50
b1 N51
b1 N57
b1 N58
b1 N65
b0 N66
b1 N93
b1 N94
b0 N105
b0 N106
b011 N117
b1 N132
b1 N133
b000 N166
b1 N174
b1 N175
b1 N176
b00000000000000000000000000000100 N181
b00000000000000000000000000000100 N182
b00000000000000000000000000000100 N183
b00000000000000000000000000000100 N184
#36
b1 N25
b1 N26
b0 N40
b0 N49
b0 N50
b0 N57
b0 N58
b0 N65
b1 N68
b1 N69
b1 N72
b0 N93
b0 N94
b1 N105
b1 N106
b00000000000000000000000000000001 N116
b1 N171
b1 N172
b1 N173
b0 N174
b0 N175
b0 N176
b00000000000000000000000000000110 N181
b00000000000000000000000000000110 N182
b00000000000000000000000000000110 N183
b00000000000000000000000000000110 N184
#37
b1 N73
b1 N74
b1 N75
b1 N76
b0 N77
b00000000000000000000000000001000 N79
b00000000000000000000000000001000 N80
b00000000000000000000000000001000 N81
b00000000000000000000000000001000 N82
b00000000000000000000000000001000 N83
b00000000000000000000000000001000 N84
b00000000000000000000000000000000 N116
b00000000000000000000000000001000 N123
b00000000000000000000000000001000 N124
b1 N125
b1 N126
b00000000000000000000000000001000 N127
b001 N166
#38
b1 N33
b1 N34
b1 N35
b1 N36
b1 N37
b1 N39
b0 N55
b0 N68
b0 N69
b0 N72
b0 N73
b0 N74
b0 N75
b0 N76
b00000000000000000000000000000000 N79
b00000000000000000000000000000000 N80
b00000000000000000000000000000000 N81
b00000000000000000000000000000000 N82
b00000000000000000000000000000000 N83
b00000000000000000000000000000000 N84
b0 N95
b0 N96
b00000000000000000000000000000010 N116
b100 N117
b00000000000000000000000000000000 N123
b00000000000000000000000000000000 N124
b0 N125
b0 N126
b010 N166
b0 N171
b0 N172
b0 N173
b00000000000000000000000000001010 N179
b00000000000000000000000000001010 N180
#39
b0 N23
b0 N24
b0 N33
b0 N34
b0 N35
b0 N36
b0 N37
b0 N39
b1 N40
b1 N49
b1 N50
b0 N51
b1 N59
b1 N60
b1 N65
b1 N66
b1 N95
b1 N96
b000 N117
b1 N130
b1 N131
b0 N148
b0 N149
b011 N166
b1 N174
b1 N175
b1 N176
#40
b1 N23
b1 N24
b0 N40
b0 N49
b0 N50
b0 N59
b0 N60
b0 N65
b1 N70
b1 N71
b1 N72
b0 N130
b0 N131
b1 N148
b1 N149
b00000000000000000000000000000001 N165
b1 N171
b1 N172
b1 N173
b0 N174
b0 N175
b0 N176
#41
b1 N73
b1 N74
b1 N75
b1 N76
b1 N77
b00000000000000000000000000000001 N79
b00000000000000000000000000000001 N80
b00000000000000000000000000000001 N81
b00000000000000000000000000000001 N82
b00000000000000000000000000000001 N83
b00000000000000000000000000000001 N84
b1 N85
b1 N86
b00000000000000000000000000000001 N87
b001 N117
b00000000000000000000000000000001 N123
b00000000000000000000000000000001 N124
b00000000000000000000000000000000 N165
#42
b1 N31
b1 N32
b1 N35
b1 N36
b1 N37
b1 N39
b1 N55
b0 N70
b0 N71
b0 N72
b0 N73
b0 N74
b0 N75
b0 N76
b00000000000000000000000000000000 N79
b00000000000000000000000000000000 N80
b00000000000000000000000000000000 N81
b00000000000000000000000000000000 N82
b00000000000000000000000000000000 N83
b00000000000000000000000000000000 N84
b0 N85
b0 N86
b010 N117
b00000000000000000000000000000000 N123
b00000000000000000000000000000000 N124
b0 N132
b0 N133
b00000000000000000000000000000010 N165
b100 N166
b0 N171
b0 N172
b0 N173
b00000000000000000000000000000011 N177
b00000000000000000000000000000011 N178
b00000000000000000000000000000011 N181
b00000000000000000000000000000011 N182
b00000000000000000000000000000011 N183
b00000000000000000000000000000011 N184
#43
b0 N25
b0 N26
b0 N31
b0 N32
b0 N35
b0 N36
b0 N37
b0 N39
b1 N40
b1 N49
b1 N50
b1 N51
b1 N57
b1 N58
b1 N65
b0 N66
b1 N93
b1 N94
b0 N105
b0 N106
b011 N117
b1 N132
b1 N133
b000 N166
b1 N174
b1 N175
b1 N176
b00000000000000000000000000001010 N181
b00000000000000000000000000001010 N182
b00000000000000000000000000001010 N183
b00000000000000000000000000001010 N184
