chisel/Gorilla++/sbt/Offloaded.vcd
$timescale 1ps $end
$scope module Offloaded $end
$var wire 1 N1 reset $end
$var wire 1 N53 io_out_ready $end
$var wire 1 N65 io_in_valid $end
$var wire 4 N96 io_pcIn_bits_pcType $end
$var wire 1 N100 io_pcIn_bits_request $end
$var wire 1 N104 io_pcIn_valid $end
$var wire 8 N114 io_pcIn_bits_portId $end
$var wire 16 N118 io_pcIn_bits_moduleId $end
$var wire 16 N122 io_pcIn_bits_pcValue $end
$var wire 1 N134 io_in_ready $end
$var wire 1 N137 io_out_valid $end
$var wire 32 N152 io_out_bits $end
$var wire 1 N155 io_pcOut_valid $end
$var wire 16 N158 io_pcOut_bits_moduleId $end
$var wire 1 N161 io_pcOut_bits_request $end
$var wire 8 N164 io_pcOut_bits_portId $end
$var wire 16 N167 io_pcOut_bits_pcValue $end
$var wire 4 N170 io_pcOut_bits_pcType $end
$var wire 32 N171 io_in_bits $end
$scope module gOffloadedComponent_1 $end
$var wire 1 N2 reset $end
$var wire 1 N54 io_out_ready $end
$var wire 1 N66 io_in_valid $end
$var wire 4 N97 io_pcIn_bits_pcType $end
$var wire 1 N101 io_pcIn_bits_request $end
$var wire 1 N105 io_pcIn_valid $end
$var wire 8 N115 io_pcIn_bits_portId $end
$var wire 16 N119 io_pcIn_bits_moduleId $end
$var wire 16 N123 io_pcIn_bits_pcValue $end
$var wire 1 N133 io_in_ready $end
$var wire 1 N136 io_out_valid $end
$var wire 32 N151 io_out_bits $end
$var wire 1 N154 io_pcOut_valid $end
$var wire 16 N157 io_pcOut_bits_moduleId $end
$var wire 1 N160 io_pcOut_bits_request $end
$var wire 8 N163 io_pcOut_bits_portId $end
$var wire 16 N166 io_pcOut_bits_pcValue $end
$var wire 4 N169 io_pcOut_bits_pcType $end
$scope module gReplicatedComponent_1 $end
$var wire 1 N5 io_pcOut_bits_request $end
$var wire 16 N8 io_pcOut_bits_moduleId $end
$var wire 1 N11 io_pcOut_valid $end
$var wire 8 N17 io_pcOut_bits_portId $end
$var wire 4 N21 io_pcOut_bits_pcType $end
$var wire 1 N28 mainOff_constOff_rep_ready $end
$var wire 1 N36 mainOff_constOff_req_valid $end
$var wire 16 N43 io_pcOut_bits_pcValue $end
$var wire 1 N47 reset $end
$var wire 1 N55 io_out_ready $end
$var wire 1 N67 io_in_valid $end
$var wire 4 N98 io_pcIn_bits_pcType $end
$var wire 1 N102 io_pcIn_bits_request $end
$var wire 1 N106 io_pcIn_valid $end
$var wire 8 N116 io_pcIn_bits_portId $end
$var wire 16 N120 io_pcIn_bits_moduleId $end
$var wire 16 N124 io_pcIn_bits_pcValue $end
$var wire 1 N132 io_in_ready $end
$var wire 1 N135 io_out_valid $end
$var wire 32 N139 mainOff_constOff_rep_bits $end
$var wire 32 N150 io_out_bits $end
$scope module IncThroughOffloadgComponent_2 $end
$var wire 1 N25 io_off_constOff_rep_ready $end
$var wire 1 N33 io_off_constOff_req_valid $end
$var wire 1 N49 io_out_valid $end
$var wire 1 N60 io_in_ready $end
$var wire 4 N71 io_pcOut_bits_pcType $end
$var wire 1 N73 io_pcOut_bits_request $end
$var wire 1 N75 io_pcOut_valid $end
$var wire 8 N83 io_pcOut_bits_portId $end
$var wire 16 N85 io_pcOut_bits_moduleId $end
$var wire 16 N87 io_pcOut_bits_pcValue $end
$var wire 1 N95 reset $end
$var wire 4 N99 pcIn0_bits_pcType $end
$var wire 1 N103 pcIn0_bits_request $end
$var wire 1 N107 pcIn0_valid $end
$var wire 1 N109 io_in_valid $end
$var wire 16 N110 R16 $end
$var wire 1 N112 io_out_ready $end
$var wire 16 N113 R17 $end
$var wire 8 N117 pcIn0_bits_portId $end
$var wire 16 N121 pcIn0_bits_moduleId $end
$var wire 16 N125 pcIn0_bits_pcValue $end
$var wire 16 N126 R18 $end
$var wire 8 N127 R19 $end
$var wire 1 N128 R20 $end
$var wire 16 N129 R21 $end
$var wire 1 N130 R22 $end
$var wire 4 N131 R23 $end
$var wire 32 N146 io_off_constOff_rep_bits $end
$var wire 32 N147 io_out_bits $end
$upscope $end
$scope module IncThroughOffloadgComponent_3 $end
$var wire 1 N4 pcOutN_bits_request $end
$var wire 16 N7 pcOutN_bits_moduleId $end
$var wire 1 N10 pcOutN_valid $end
$var wire 8 N16 pcOutN_bits_portId $end
$var wire 4 N20 pcOutN_bits_pcType $end
$var wire 1 N23 io_off_constOff_rep_ready $end
$var wire 1 N31 io_off_constOff_req_valid $end
$var wire 16 N42 pcOutN_bits_pcValue $end
$var wire 1 N51 io_out_valid $end
$var wire 1 N62 io_in_ready $end
$var wire 1 N70 reset $end
$var wire 4 N72 io_pcIn_bits_pcType $end
$var wire 1 N74 io_pcIn_bits_request $end
$var wire 1 N76 io_pcIn_valid $end
$var wire 1 N78 io_in_valid $end
$var wire 16 N79 R8 $end
$var wire 1 N81 io_out_ready $end
$var wire 16 N82 R9 $end
$var wire 8 N84 io_pcIn_bits_portId $end
$var wire 16 N86 io_pcIn_bits_moduleId $end
$var wire 16 N88 io_pcIn_bits_pcValue $end
$var wire 16 N89 R10 $end
$var wire 8 N90 R11 $end
$var wire 1 N91 R12 $end
$var wire 16 N92 R13 $end
$var wire 1 N93 R14 $end
$var wire 4 N94 R15 $end
$var wire 32 N142 io_off_constOff_rep_bits $end
$var wire 32 N143 io_out_bits $end
$upscope $end
$scope module RRDistributer $end
$var wire 1 N59 reset $end
$var wire 1 N61 io_out_0_ready $end
$var wire 1 N63 io_out_1_ready $end
$var wire 1 N64 io_in_ready $end
$var wire 1 N68 io_in_valid $end
$var wire 1 N69 last_grant $end
$var wire 1 N77 io_out_1_valid $end
$var wire 1 N108 io_out_0_valid $end
$upscope $end
$scope module RRArbiter $end
$var wire 1 N48 reset $end
$var wire 1 N50 io_in_0_valid $end
$var wire 1 N52 io_in_1_valid $end
$var wire 1 N56 io_out_ready $end
$var wire 1 N57 io_out_valid $end
$var wire 1 N58 last_grant $end
$var wire 1 N80 io_in_1_ready $end
$var wire 1 N111 io_in_0_ready $end
$var wire 32 N144 io_in_1_bits $end
$var wire 32 N148 io_in_0_bits $end
$var wire 32 N149 io_out_bits $end
$upscope $end
$scope module RRArbiter_1 $end
$var wire 1 N32 io_in_1_valid $end
$var wire 1 N34 io_in_0_valid $end
$var wire 1 N35 io_out_valid $end
$upscope $end
$scope module RRDistributer_1 $end
$var wire 1 N24 io_out_1_ready $end
$var wire 1 N26 io_out_0_ready $end
$var wire 1 N27 io_in_ready $end
$var wire 32 N140 io_in_bits $end
$var wire 32 N141 io_out_1_bits $end
$var wire 32 N145 io_out_0_bits $end
$upscope $end
$upscope $end
$scope module SendConstantgComponent_1 $end
$var wire 32 N0 outputData $end
$var wire 1 N3 reset $end
$var wire 1 N6 io_pcIn_bits_request $end
$var wire 16 N9 io_pcIn_bits_moduleId $end
$var wire 1 N12 io_pcIn_valid $end
$var wire 1 N13 R0 $end
$var wire 16 N14 R1 $end
$var wire 1 N15 R2 $end
$var wire 8 N18 io_pcIn_bits_portId $end
$var wire 8 N19 R3 $end
$var wire 4 N22 io_pcIn_bits_pcType $end
$var wire 1 N29 io_out_ready $end
$var wire 1 N30 io_in_ready $end
$var wire 1 N37 io_in_valid $end
$var wire 16 N38 R4 $end
$var wire 1 N39 outputValid $end
$var wire 1 N40 io_out_valid $end
$var wire 16 N41 R5 $end
$var wire 16 N44 io_pcIn_bits_pcValue $end
$var wire 16 N45 R6 $end
$var wire 4 N46 R7 $end
$var wire 32 N138 io_out_bits $end
$var wire 1 N153 io_pcOut_valid $end
$var wire 16 N156 io_pcOut_bits_moduleId $end
$var wire 1 N159 io_pcOut_bits_request $end
$var wire 8 N162 io_pcOut_bits_portId $end
$var wire 16 N165 io_pcOut_bits_pcValue $end
$var wire 4 N168 io_pcOut_bits_pcType $end
$upscope $end
$upscope $end
$upscope $end
$enddefinitions $end
$dumpvars
$end
#0
b00000000000000000000000000000010 N0
b0 N2
b0 N3
b1 N4
b1 N5
b1 N6
b0000000000000000 N7
b0000000000000000 N8
b0000000000000000 N9
b0 N10
b0 N11
b0 N12
b0 N13
b0000000000000000 N14
b1 N15
b00000000 N16
b00000000 N17
b00000000 N18
b00000000 N19
b0000 N20
b0000 N21
b0000 N22
b0 N23
b0 N24
b0 N25
b0 N26
b0 N27
b0 N28
b0 N29
b0 N30
b0 N31
b0 N32
b0 N33
b0 N34
b0 N35
b0 N36
b0 N37
b0000000000000000 N38
b0 N39
b0 N40
b0000000000000000 N41
b0000000000000000 N42
b0000000000000000 N43
b0000000000000000 N44
b0000000000000000 N45
b0000 N46
b0 N47
b0 N48
b1 N49
b1 N50
b1 N51
b1 N52
b0 N53
b0 N54
b0 N55
b0 N56
b1 N57
b0 N58
b0 N59
b1 N60
b1 N61
b1 N62
b1 N63
b1 N64
b0 N65
b0 N66
b0 N67
b0 N68
b0 N69
b0 N70
b0000 N71
b0000 N72
b1 N73
b1 N74
b0 N75
b0 N76
b0 N77
b0 N78
b0000000000000000 N79
b0 N80
b0 N81
b0000000000000001 N82
b00000000 N83
b00000000 N84
b0000000000000000 N85
b0000000000000000 N86
b0000000000000000 N87
b0000000000000000 N88
b0000000000000000 N89
b00000000 N90
b0 N91
b0000000000000000 N92
b1 N93
b0000 N94
b0 N95
b0010 N96
b0010 N97
b0010 N98
b0010 N99
b0 N100
b0 N101
b0 N102
b0 N103
b0 N104
b0 N105
b0 N106
b0 N107
b0 N108
b0 N109
b0000000000000000 N110
b0 N111
b0 N112
b0000000000000001 N113
b00000000 N114
b00000000 N115
b00000000 N116
b00000000 N117
b0000000000000000 N118
b0000000000000000 N119
b0000000000000000 N120
b0000000000000000 N121
b0000000000000000 N122
b0000000000000000 N123
b0000000000000000 N124
b0000000000000000 N125
b0000000000000000 N126
b00000000 N127
b0 N128
b0000000000000000 N129
b0 N130
b0010 N131
b1 N132
b1 N133
b1 N134
b1 N135
b1 N136
b1 N137
b00000000000000000000000000000010 N138
b00000000000000000000000000000010 N139
b00000000000000000000000000000010 N140
b00000000000000000000000000000010 N141
b00000000000000000000000000000010 N142
b00000000000000000000000000000010 N143
b00000000000000000000000000000010 N144
b00000000000000000000000000000010 N145
b00000000000000000000000000000010 N146
b00000000000000000000000000000010 N147
b00000000000000000000000000000010 N148
b00000000000000000000000000000010 N149
b00000000000000000000000000000010 N150
b00000000000000000000000000000010 N151
b00000000000000000000000000000010 N152
b0 N153
b0 N154
b0 N155
b0000000000000000 N156
b0000000000000000 N157
b0000000000000000 N158
b1 N159
b1 N160
b1 N161
b00000000 N162
b00000000 N163
b00000000 N164
b0000000000000000 N165
b0000000000000000 N166
b0000000000000000 N167
b0000 N168
b0000 N169
b0000 N170
b00000000000000000000000000000000 N171
#1
b0010 N71
b0010 N72
b0 N73
b0 N74
b0000000000000010 N82
b0 N93
b0010 N94
b0000000000000010 N113
#2
b0 N4
b0 N5
b0 N6
b0 N15
b0010 N20
b0010 N21
b0010 N22
b0010 N46
b0000000000000011 N82
b0000000000000011 N113
#3
b0000000000000100 N82
b0000000000000100 N113
b0 N159
b0 N160
b0 N161
b0010 N168
b0010 N169
b0010 N170
#4
b0000000000000101 N82
b0000000000000101 N113
#5
b0000000000000110 N82
b1 N100
b1 N101
b1 N102
b1 N103
b1 N104
b1 N105
b1 N106
b1 N107
b0000000000000000 N113
b1 N128
b1 N130
#6
b1 N73
b1 N74
b1 N75
b1 N76
b0000000000000000 N82
b1 N91
b1 N93
b0 N104
b0 N105
b0 N106
b0 N107
b0000000000000001 N113
b0 N128
#7
b1 N4
b1 N5
b1 N6
b1 N10
b1 N11
b1 N12
b1 N13
b1 N15
b0 N75
b0 N76
b0000000000000001 N82
b0 N91
b0000000000000010 N113
#8
b0 N10
b0 N11
b0 N12
b0 N13
b0000000000000010 N82
b0000000000000011 N113
b1 N153
b1 N154
b1 N155
b1 N159
b1 N160
b1 N161
#9
b1 N53
b1 N54
b1 N55
b1 N56
b1 N58
b1 N65
b1 N66
b1 N67
b1 N68
b1 N69
b1 N77
b1 N78
b1 N80
b1 N81
b0000000000000100 N113
b0 N153
b0 N154
b0 N155
b00000000000000000000000000000001 N171
#10
b0 N58
b0 N65
b0 N66
b0 N67
b0 N68
b0 N77
b0 N78
b0 N80
b0 N81
b0000000000000011 N82
b1 N111
b1 N112
b00000000000000000000000000000000 N171
#11
b1 N58
b1 N80
b1 N81
b0 N111
b0 N112
b0000000000000101 N113
#12
b0 N58
b0 N80
b0 N81
b0000000000000100 N82
b1 N111
b1 N112
#13
b1 N58
b1 N65
b1 N66
b1 N67
b1 N68
b0 N69
b1 N80
b1 N81
b1 N108
b1 N109
b0 N111
b0 N112
b0000000000000110 N113
b00000000000000000000000000000010 N171
#14
b0 N58
b0 N65
b0 N66
b0 N67
b0 N68
b0 N80
b0 N81
b0000000000000101 N82
b0 N108
b0 N109
b1 N111
b1 N112
b00000000000000000000000000000000 N171
#15
b1 N58
b1 N80
b1 N81
b0 N111
b0 N112
b0000000000000111 N113
#16
b0 N58
b0 N80
b0 N81
b0000000000000110 N82
b1 N111
b1 N112
#17
b1 N58
b1 N65
b1 N66
b1 N67
b1 N68
b1 N69
b1 N77
b1 N78
b1 N80
b1 N81
b0 N111
b0 N112
b0000000000001000 N113
b00000000000000000000000000000100 N171
#18
b0 N58
b0 N65
b0 N66
b0 N67
b0 N68
b0 N77
b0 N78
b0 N80
b0 N81
b0000000000000111 N82
b1 N111
b1 N112
b00000000000000000000000000000000 N171
#19
b1 N58
b1 N80
b1 N81
b0 N111
b0 N112
b0000000000001001 N113
#20
b0 N58
b0 N80
b0 N81
b0000000000001000 N82
b1 N111
b1 N112
#21
b1 N58
b1 N65
b1 N66
b1 N67
b1 N68
b0 N69
b1 N80
b1 N81
b1 N108
b1 N109
b0 N111
b0 N112
b0000000000001010 N113
b00000000000000000000000000001000 N171
#22
b0 N58
b0 N65
b0 N66
b0 N67
b0 N68
b0 N80
b0 N81
b0000000000001001 N82
b0 N108
b0 N109
b1 N111
b1 N112
b00000000000000000000000000000000 N171
#23
b1 N58
b1 N80
b1 N81
b0 N111
b0 N112
b0000000000001011 N113
#24
b0 N58
b0 N80
b0 N81
b0000000000001010 N82
b1 N111
b1 N112
#25
b1 N58
b1 N65
b1 N66
b1 N67
b1 N68
b1 N69
b1 N77
b1 N78
b1 N80
b1 N81
b0 N111
b0 N112
b0000000000001100 N113
b00000000000000000000000000000001 N171
#26
b0 N58
b0 N65
b0 N66
b0 N67
b0 N68
b0 N77
b0 N78
b0 N80
b0 N81
b0000000000001011 N82
b1 N111
b1 N112
b00000000000000000000000000000000 N171
#27
b1 N58
b1 N80
b1 N81
b0 N111
b0 N112
b0000000000001101 N113
#28
b0 N58
b0 N80
b0 N81
b0000000000001100 N82
b1 N111
b1 N112
#29
b1 N58
b1 N65
b1 N66
b1 N67
b1 N68
b0 N69
b1 N80
b1 N81
b1 N108
b1 N109
b0 N111
b0 N112
b0000000000001110 N113
b00000000000000000000000000000010 N171
#30
b0 N58
b0 N65
b0 N66
b0 N67
b0 N68
b0 N80
b0 N81
b0000000000001101 N82
b0 N108
b0 N109
b1 N111
b1 N112
b00000000000000000000000000000000 N171
#31
b1 N58
b1 N80
b1 N81
b0 N111
b0 N112
b0000000000001111 N113
#32
b0 N58
b0 N80
b0 N81
b0000000000001110 N82
b1 N111
b1 N112
#33
b1 N58
b1 N65
b1 N66
b1 N67
b1 N68
b1 N69
b1 N77
b1 N78
b1 N80
b1 N81
b0 N111
b0 N112
b0000000000010000 N113
b00000000000000000000000000000100 N171
#34
b0 N58
b0 N65
b0 N66
b0 N67
b0 N68
b0 N77
b0 N78
b0 N80
b0 N81
b0000000000001111 N82
b1 N111
b1 N112
b00000000000000000000000000000000 N171
#35
b1 N58
b1 N80
b1 N81
b0 N111
b0 N112
b0000000000010001 N113
#36
b0 N58
b0 N80
b0 N81
b0000000000010000 N82
b1 N111
b1 N112
#37
b1 N58
b1 N65
b1 N66
b1 N67
b1 N68
b0 N69
b1 N80
b1 N81
b1 N108
b1 N109
b0 N111
b0 N112
b0000000000010010 N113
b00000000000000000000000000001000 N171
#38
b0 N58
b0 N65
b0 N66
b0 N67
b0 N68
b0 N80
b0 N81
b0000000000010001 N82
b0 N108
b0 N109
b1 N111
b1 N112
b00000000000000000000000000000000 N171
#39
b1 N58
b1 N80
b1 N81
b0 N111
b0 N112
b0000000000010011 N113
#40
b0 N58
b0 N80
b0 N81
b0000000000010010 N82
b1 N111
b1 N112
#41
b1 N58
b1 N65
b1 N66
b1 N67
b1 N68
b1 N69
b1 N77
b1 N78
b1 N80
b1 N81
b0 N111
b0 N112
b0000000000010100 N113
b00000000000000000000000000000001 N171
#42
b0 N58
b0 N65
b0 N66
b0 N67
b0 N68
b0 N77
b0 N78
b0 N80
b0 N81
b0000000000010011 N82
b1 N111
b1 N112
b00000000000000000000000000000000 N171
#43
b1 N58
b1 N80
b1 N81
b0 N111
b0 N112
b0000000000010101 N113
#44
b0 N58
b0 N80
b0 N81
b0000000000010100 N82
b1 N111
b1 N112
#45
b1 N58
b1 N65
b1 N66
b1 N67
b1 N68
b0 N69
b1 N80
b1 N81
b1 N108
b1 N109
b0 N111
b0 N112
b0000000000010110 N113
b00000000000000000000000000000010 N171
#46
b0 N58
b0 N65
b0 N66
b0 N67
b0 N68
b0 N80
b0 N81
b0000000000010101 N82
b0 N108
b0 N109
b1 N111
b1 N112
b00000000000000000000000000000000 N171
#47
b1 N58
b1 N80
b1 N81
b0 N111
b0 N112
b0000000000010111 N113
#48
b0 N58
b0 N80
b0 N81
b0000000000010110 N82
b1 N111
b1 N112
#49
b1 N58
b1 N65
b1 N66
b1 N67
b1 N68
b1 N69
b1 N77
b1 N78
b1 N80
b1 N81
b0 N111
b0 N112
b0000000000011000 N113
b00000000000000000000000000000100 N171
#50
b0 N58
b0 N65
b0 N66
b0 N67
b0 N68
b0 N77
b0 N78
b0 N80
b0 N81
b0000000000010111 N82
b1 N111
b1 N112
b00000000000000000000000000000000 N171
#51
b1 N58
b1 N80
b1 N81
b0 N111
b0 N112
b0000000000011001 N113
#52
b0 N58
b0 N80
b0 N81
b0000000000011000 N82
b1 N111
b1 N112
#53
b1 N58
b1 N65
b1 N66
b1 N67
b1 N68
b0 N69
b1 N80
b1 N81
b1 N108
b1 N109
b0 N111
b0 N112
b0000000000011010 N113
b00000000000000000000000000001000 N171
#54
b0 N58
b0 N65
b0 N66
b0 N67
b0 N68
b0 N80
b0 N81
b0000000000011001 N82
b0 N108
b0 N109
b1 N111
b1 N112
b00000000000000000000000000000000 N171
#55
b1 N58
b1 N80
b1 N81
b0 N111
b0 N112
b0000000000011011 N113
#56
b0 N58
b0 N80
b0 N81
b0000000000011010 N82
b1 N111
b1 N112
#57
b1 N58
b1 N65
b1 N66
b1 N67
b1 N68
b1 N69
b1 N77
b1 N78
b1 N80
b1 N81
b0 N111
b0 N112
b0000000000011100 N113
b00000000000000000000000000000001 N171
#58
b0 N58
b0 N65
b0 N66
b0 N67
b0 N68
b0 N77
b0 N78
b0 N80
b0 N81
b0000000000011011 N82
b1 N111
b1 N112
b00000000000000000000000000000000 N171
#59
b1 N58
b1 N80
b1 N81
b0 N111
b0 N112
b0000000000011101 N113
#60
b0 N58
b0 N80
b0 N81
b0000000000011100 N82
b1 N111
b1 N112
#61
b1 N58
b1 N65
b1 N66
b1 N67
b1 N68
b0 N69
b1 N80
b1 N81
b1 N108
b1 N109
b0 N111
b0 N112
b0000000000011110 N113
b00000000000000000000000000000010 N171
#62
b0 N58
b0 N65
b0 N66
b0 N67
b0 N68
b0 N80
b0 N81
b0000000000011101 N82
b0 N108
b0 N109
b1 N111
b1 N112
b00000000000000000000000000000000 N171
#63
b1 N58
b1 N80
b1 N81
b0 N111
b0 N112
b0000000000011111 N113
#64
b0 N58
b0 N80
b0 N81
b0000000000011110 N82
b1 N111
b1 N112
#65
b1 N58
b1 N65
b1 N66
b1 N67
b1 N68
b1 N69
b1 N77
b1 N78
b1 N80
b1 N81
b0 N111
b0 N112
b0000000000100000 N113
b00000000000000000000000000000100 N171
#66
b0 N58
b0 N65
b0 N66
b0 N67
b0 N68
b0 N77
b0 N78
b0 N80
b0 N81
b0000000000011111 N82
b1 N111
b1 N112
b00000000000000000000000000000000 N171
#67
b1 N58
b1 N80
b1 N81
b0 N111
b0 N112
b0000000000100001 N113
#68
b0 N58
b0 N80
b0 N81
b0000000000100000 N82
b1 N111
b1 N112
#69
b1 N58
b1 N65
b1 N66
b1 N67
b1 N68
b0 N69
b1 N80
b1 N81
b1 N108
b1 N109
b0 N111
b0 N112
b0000000000100010 N113
b00000000000000000000000000001000 N171
#70
b0 N58
b0 N65
b0 N66
b0 N67
b0 N68
b0 N80
b0 N81
b0000000000100001 N82
b0 N108
b0 N109
b1 N111
b1 N112
b00000000000000000000000000000000 N171
#71
b1 N58
b1 N80
b1 N81
b0 N111
b0 N112
b0000000000100011 N113
#72
b0 N58
b0 N80
b0 N81
b0000000000100010 N82
b1 N111
b1 N112
#73
b1 N58
b1 N65
b1 N66
b1 N67
b1 N68
b1 N69
b1 N77
b1 N78
b1 N80
b1 N81
b0 N111
b0 N112
b0000000000100100 N113
b00000000000000000000000000000001 N171
#74
b0 N58
b0 N65
b0 N66
b0 N67
b0 N68
b0 N77
b0 N78
b0 N80
b0 N81
b0000000000100011 N82
b1 N111
b1 N112
b00000000000000000000000000000000 N171
#75
b1 N58
b1 N80
b1 N81
b0 N111
b0 N112
b0000000000100101 N113
#76
b0 N58
b0 N80
b0 N81
b0000000000100100 N82
b1 N111
b1 N112
#77
b1 N58
b1 N65
b1 N66
b1 N67
b1 N68
b0 N69
b1 N80
b1 N81
b1 N108
b1 N109
b0 N111
b0 N112
b0000000000100110 N113
b00000000000000000000000000000010 N171
#78
b0 N58
b0 N65
b0 N66
b0 N67
b0 N68
b0 N80
b0 N81
b0000000000100101 N82
b0 N108
b0 N109
b1 N111
b1 N112
b00000000000000000000000000000000 N171
#79
b1 N58
b1 N80
b1 N81
b0 N111
b0 N112
b0000000000100111 N113
#80
b0 N58
b0 N80
b0 N81
b0000000000100110 N82
b1 N111
b1 N112
#81
b1 N58
b1 N65
b1 N66
b1 N67
b1 N68
b1 N69
b1 N77
b1 N78
b1 N80
b1 N81
b0 N111
b0 N112
b0000000000101000 N113
b00000000000000000000000000000100 N171
#82
b0 N58
b0 N65
b0 N66
b0 N67
b0 N68
b0 N77
b0 N78
b0 N80
b0 N81
b0000000000100111 N82
b1 N111
b1 N112
b00000000000000000000000000000000 N171
#83
b1 N58
b1 N80
b1 N81
b0 N111
b0 N112
b0000000000101001 N113
#84
b0 N58
b0 N80
b0 N81
b0000000000101000 N82
b1 N111
b1 N112
#85
b1 N58
b1 N65
b1 N66
b1 N67
b1 N68
b0 N69
b1 N80
b1 N81
b1 N108
b1 N109
b0 N111
b0 N112
b0000000000101010 N113
b00000000000000000000000000001000 N171
#86
b0 N58
b0 N65
b0 N66
b0 N67
b0 N68
b0 N80
b0 N81
b0000000000101001 N82
b0 N108
b0 N109
b1 N111
b1 N112
b00000000000000000000000000000000 N171
#87
b1 N58
b1 N80
b1 N81
b0 N111
b0 N112
b0000000000101011 N113
#88
b0 N58
b0 N80
b0 N81
b0000000000101010 N82
b1 N111
b1 N112
#89
b1 N58
b1 N65
b1 N66
b1 N67
b1 N68
b1 N69
b1 N77
b1 N78
b1 N80
b1 N81
b0 N111
b0 N112
b0000000000101100 N113
b00000000000000000000000000000001 N171
#90
b0 N58
b0 N65
b0 N66
b0 N67
b0 N68
b0 N77
b0 N78
b0 N80
b0 N81
b0000000000101011 N82
b1 N111
b1 N112
b00000000000000000000000000000000 N171
#91
b1 N58
b1 N80
b1 N81
b0 N111
b0 N112
b0000000000101101 N113
#92
b0 N58
b0 N80
b0 N81
b0000000000101100 N82
b1 N111
b1 N112
#93
b1 N58
b1 N65
b1 N66
b1 N67
b1 N68
b0 N69
b1 N80
b1 N81
b1 N108
b1 N109
b0 N111
b0 N112
b0000000000101110 N113
b00000000000000000000000000000010 N171
#94
b0 N58
b0 N65
b0 N66
b0 N67
b0 N68
b0 N80
b0 N81
b0000000000101101 N82
b0 N108
b0 N109
b1 N111
b1 N112
b00000000000000000000000000000000 N171
#95
b1 N58
b1 N80
b1 N81
b0 N111
b0 N112
b0000000000101111 N113
#96
b0 N58
b0 N80
b0 N81
b0000000000101110 N82
b1 N111
b1 N112
#97
b1 N58
b1 N65
b1 N66
b1 N67
b1 N68
b1 N69
b1 N77
b1 N78
b1 N80
b1 N81
b0 N111
b0 N112
b0000000000110000 N113
b00000000000000000000000000000100 N171
#98
b0 N58
b0 N65
b0 N66
b0 N67
b0 N68
b0 N77
b0 N78
b0 N80
b0 N81
b0000000000101111 N82
b1 N111
b1 N112
b00000000000000000000000000000000 N171
#99
b1 N58
b1 N80
b1 N81
b0 N111
b0 N112
b0000000000110001 N113
#100
b0 N58
b0 N80
b0 N81
b0000000000110000 N82
b1 N111
b1 N112
#101
b1 N58
b1 N65
b1 N66
b1 N67
b1 N68
b0 N69
b1 N80
b1 N81
b1 N108
b1 N109
b0 N111
b0 N112
b0000000000110010 N113
b00000000000000000000000000001000 N171
#102
b0 N58
b0 N65
b0 N66
b0 N67
b0 N68
b0 N80
b0 N81
b0000000000110001 N82
b0 N108
b0 N109
b1 N111
b1 N112
b00000000000000000000000000000000 N171
#103
b1 N58
b1 N80
b1 N81
b0 N111
b0 N112
b0000000000110011 N113
#104
b0 N58
b0 N80
b0 N81
b0000000000110010 N82
b1 N111
b1 N112
#105
b1 N58
b1 N65
b1 N66
b1 N67
b1 N68
b1 N69
b1 N77
b1 N78
b1 N80
b1 N81
b0 N111
b0 N112
b0000000000110100 N113
b00000000000000000000000000000001 N171
#106
b0 N58
b0 N65
b0 N66
b0 N67
b0 N68
b0 N77
b0 N78
b0 N80
b0 N81
b0000000000110011 N82
b1 N111
b1 N112
b00000000000000000000000000000000 N171
#107
b1 N58
b1 N80
b1 N81
b0 N111
b0 N112
b0000000000110101 N113
#108
b0 N58
b0 N80
b0 N81
b0000000000110100 N82
b1 N111
b1 N112
#109
b1 N58
b1 N65
b1 N66
b1 N67
b1 N68
b0 N69
b1 N80
b1 N81
b1 N108
b1 N109
b0 N111
b0 N112
b0000000000110110 N113
b00000000000000000000000000000010 N171
#110
b0 N58
b0 N65
b0 N66
b0 N67
b0 N68
b0 N80
b0 N81
b0000000000110101 N82
b0 N108
b0 N109
b1 N111
b1 N112
b00000000000000000000000000000000 N171
#111
b1 N58
b1 N80
b1 N81
b0 N111
b0 N112
b0000000000110111 N113
#112
b0 N58
b0 N80
b0 N81
b0000000000110110 N82
b1 N111
b1 N112
#113
b1 N58
b1 N65
b1 N66
b1 N67
b1 N68
b1 N69
b1 N77
b1 N78
b1 N80
b1 N81
b0 N111
b0 N112
b0000000000111000 N113
b00000000000000000000000000000100 N171
#114
b0 N58
b0 N65
b0 N66
b0 N67
b0 N68
b0 N77
b0 N78
b0 N80
b0 N81
b0000000000110111 N82
b1 N111
b1 N112
b00000000000000000000000000000000 N171
#115
b1 N58
b1 N80
b1 N81
b0 N111
b0 N112
b0000000000111001 N113
#116
b0 N58
b0 N80
b0 N81
b0000000000111000 N82
b1 N111
b1 N112
#117
b1 N58
b1 N65
b1 N66
b1 N67
b1 N68
b0 N69
b1 N80
b1 N81
b1 N108
b1 N109
b0 N111
b0 N112
b0000000000111010 N113
b00000000000000000000000000001000 N171
#118
b0 N58
b0 N65
b0 N66
b0 N67
b0 N68
b0 N80
b0 N81
b0000000000111001 N82
b0 N108
b0 N109
b1 N111
b1 N112
b00000000000000000000000000000000 N171
#119
b1 N58
b1 N80
b1 N81
b0 N111
b0 N112
b0000000000111011 N113
#120
b0 N58
b0 N80
b0 N81
b0000000000111010 N82
b1 N111
b1 N112
#121
b1 N58
b1 N65
b1 N66
b1 N67
b1 N68
b1 N69
b1 N77
b1 N78
b1 N80
b1 N81
b0 N111
b0 N112
b0000000000111100 N113
b00000000000000000000000000000001 N171
#122
b0 N58
b0 N65
b0 N66
b0 N67
b0 N68
b0 N77
b0 N78
b0 N80
b0 N81
b0000000000111011 N82
b1 N111
b1 N112
b00000000000000000000000000000000 N171
#123
b1 N58
b1 N80
b1 N81
b0 N111
b0 N112
b0000000000111101 N113
#124
b0 N58
b0 N80
b0 N81
b0000000000111100 N82
b1 N111
b1 N112
#125
b1 N58
b1 N65
b1 N66
b1 N67
b1 N68
b0 N69
b1 N80
b1 N81
b1 N108
b1 N109
b0 N111
b0 N112
b0000000000111110 N113
b00000000000000000000000000000010 N171
#126
b0 N58
b0 N65
b0 N66
b0 N67
b0 N68
b0 N80
b0 N81
b0000000000111101 N82
b0 N108
b0 N109
b1 N111
b1 N112
b00000000000000000000000000000000 N171
#127
b1 N58
b1 N80
b1 N81
b0 N111
b0 N112
b0000000000111111 N113
#128
b0 N58
b0 N80
b0 N81
b0000000000111110 N82
b1 N111
b1 N112
#129
b1 N58
b1 N65
b1 N66
b1 N67
b1 N68
b1 N69
b1 N77
b1 N78
b1 N80
b1 N81
b0 N111
b0 N112
b0000000001000000 N113
b00000000000000000000000000000100 N171
#130
b0 N58
b0 N65
b0 N66
b0 N67
b0 N68
b0 N77
b0 N78
b0 N80
b0 N81
b0000000000111111 N82
b1 N111
b1 N112
b00000000000000000000000000000000 N171
#131
b1 N58
b1 N80
b1 N81
b0 N111
b0 N112
b0000000001000001 N113
#132
b0 N58
b0 N80
b0 N81
b0000000001000000 N82
b1 N111
b1 N112
#133
b1 N58
b1 N65
b1 N66
b1 N67
b1 N68
b0 N69
b1 N80
b1 N81
b1 N108
b1 N109
b0 N111
b0 N112
b0000000001000010 N113
b00000000000000000000000000001000 N171
