chisel/Gorilla++/sbt/Top.vcd
$timescale 1ps $end
$scope module Top $end
$var wire 1 N3 reset $end
$var wire 32 N49 io_in_bits_a $end
$var wire 1 N54 io_in_valid $end
$var wire 10 N66 io_in_tag $end
$var wire 4 N71 io_pcIn_bits_pcType $end
$var wire 1 N74 io_pcIn_bits_request $end
$var wire 1 N77 io_pcIn_valid $end
$var wire 1 N80 io_out_ready $end
$var wire 8 N94 io_pcIn_bits_portId $end
$var wire 16 N97 io_pcIn_bits_moduleId $end
$var wire 20 N100 io_pcIn_bits_pcValue $end
$var wire 32 N119 io_out_bits_b $end
$var wire 32 N122 io_out_bits_a $end
$var wire 1 N124 io_out_valid $end
$var wire 10 N127 io_out_tag $end
$var wire 1 N129 io_in_ready $end
$var wire 1 N132 io_pcOut_bits_request $end
$var wire 16 N135 io_pcOut_bits_moduleId $end
$var wire 4 N138 io_pcOut_bits_pcType $end
$var wire 8 N141 io_pcOut_bits_portId $end
$var wire 20 N144 io_pcOut_bits_pcValue $end
$var wire 1 N147 io_pcOut_valid $end
$var wire 32 N148 io_in_bits_b $end
$scope module gOffloadedComponent_1 $end
$var wire 1 N4 reset $end
$var wire 32 N50 io_in_bits_a $end
$var wire 1 N55 io_in_valid $end
$var wire 10 N67 io_in_tag $end
$var wire 4 N72 io_pcIn_bits_pcType $end
$var wire 1 N75 io_pcIn_bits_request $end
$var wire 1 N78 io_pcIn_valid $end
$var wire 1 N81 io_out_ready $end
$var wire 8 N95 io_pcIn_bits_portId $end
$var wire 16 N98 io_pcIn_bits_moduleId $end
$var wire 20 N101 io_pcIn_bits_pcValue $end
$var wire 32 N118 io_out_bits_b $end
$var wire 32 N121 io_out_bits_a $end
$var wire 1 N123 io_out_valid $end
$var wire 10 N126 io_out_tag $end
$var wire 1 N128 io_in_ready $end
$var wire 1 N131 io_pcOut_bits_request $end
$var wire 16 N134 io_pcOut_bits_moduleId $end
$var wire 4 N137 io_pcOut_bits_pcType $end
$var wire 8 N140 io_pcOut_bits_portId $end
$var wire 20 N143 io_pcOut_bits_pcValue $end
$var wire 1 N146 io_pcOut_valid $end
$scope module incThroughOffload_1 $end
$var wire 1 N6 io_pcOut_bits_request $end
$var wire 16 N8 io_pcOut_bits_moduleId $end
$var wire 1 N10 io_pcOut_valid $end
$var wire 4 N14 io_pcOut_bits_pcType $end
$var wire 8 N17 io_pcOut_bits_portId $end
$var wire 1 N20 mainOff_incrementFactor_rep_ready $end
$var wire 1 N31 mainOff_incrementFactor_req_valid $end
$var wire 10 N37 mainOff_incrementFactor_req_tag $end
$var wire 20 N44 io_pcOut_bits_pcValue $end
$var wire 32 N48 outputReg_0_b $end
$var wire 32 N51 io_in_bits_a $end
$var wire 1 N56 io_in_valid $end
$var wire 32 N57 inputReg_0_a $end
$var wire 10 N59 mainOff_incrementFactor_rep_tag $end
$var wire 1 N60 mainOff_incrementFactor_rep_valid $end
$var wire 32 N64 mainOff_incrementFactor_rep_bits $end
$var wire 32 N65 outputReg_0_a $end
$var wire 10 N68 io_in_tag $end
$var wire 10 N69 inputTag_0 $end
$var wire 1 N70 reset $end
$var wire 4 N73 io_pcIn_bits_pcType $end
$var wire 1 N76 io_pcIn_bits_request $end
$var wire 1 N79 io_pcIn_valid $end
$var wire 1 N82 io_out_ready $end
$var wire 1 N83 io_out_valid $end
$var wire 5 N84 R12 $end
$var wire 1 N85 io_in_ready $end
$var wire 5 N86 R13 $end
$var wire 5 N87 R14 $end
$var wire 1 N88 mainOff_incrementFactor_req_ready $end
$var wire 20 N89 R15 $end
$var wire 20 N90 R16 $end
$var wire 20 N91 R17 $end
$var wire 1 N92 R18 $end
$var wire 20 N93 R19 $end
$var wire 8 N96 io_pcIn_bits_portId $end
$var wire 16 N99 io_pcIn_bits_moduleId $end
$var wire 20 N102 io_pcIn_bits_pcValue $end
$var wire 20 N103 R20 $end
$var wire 8 N104 R21 $end
$var wire 1 N105 incrementFactor_ready_received $end
$var wire 1 N106 incrementFactorPortHadReadyRequest $end
$var wire 32 N107 counter_0 $end
$var wire 8 N108 EmitReturnState_0 $end
$var wire 8 N109 State_0 $end
$var wire 1 N110 incrementFactor_valid_received_0 $end
$var wire 1 N111 incrementFactorPortHadValidRequest_0 $end
$var wire 1 N112 subStateTh_0 $end
$var wire 4 N113 R22 $end
$var wire 1 N114 R23 $end
$var wire 16 N115 R24 $end
$var wire 1 N116 R25 $end
$var wire 32 N117 io_out_bits_b $end
$var wire 32 N120 io_out_bits_a $end
$var wire 10 N125 io_out_tag $end
$scope module RREncode $end
$var wire 1 N29 io_valid_0 $end
$var wire 1 N30 io_chosen $end
$upscope $end
$scope module RREncode_1 $end
$var wire 1 N61 io_valid_0 $end
$var wire 1 N62 io_chosen $end
$upscope $end
$scope module RREncode_2 $end
$var wire 1 N52 io_valid_0 $end
$var wire 1 N53 io_chosen $end
$upscope $end
$upscope $end
$scope module sendConst_1 $end
$var wire 32 N2 outputReg_0 $end
$var wire 1 N5 reset $end
$var wire 1 N7 io_pcIn_bits_request $end
$var wire 16 N9 io_pcIn_bits_moduleId $end
$var wire 1 N11 io_pcIn_valid $end
$var wire 1 N12 R0 $end
$var wire 16 N13 R1 $end
$var wire 4 N15 io_pcIn_bits_pcType $end
$var wire 4 N16 R2 $end
$var wire 8 N18 io_pcIn_bits_portId $end
$var wire 8 N19 R3 $end
$var wire 1 N21 io_out_ready $end
$var wire 1 N24 io_out_valid $end
$var wire 5 N25 R4 $end
$var wire 1 N28 io_in_ready $end
$var wire 1 N32 io_in_valid $end
$var wire 5 N33 R5 $end
$var wire 5 N34 R6 $end
$var wire 20 N35 R7 $end
$var wire 8 N36 EmitReturnState_0 $end
$var wire 10 N38 io_in_tag $end
$var wire 10 N39 inputTag_0 $end
$var wire 1 N40 subStateTh_0 $end
$var wire 8 N41 State_0 $end
$var wire 1 N42 R8 $end
$var wire 20 N43 R9 $end
$var wire 20 N45 io_pcIn_bits_pcValue $end
$var wire 20 N46 R10 $end
$var wire 1 N47 R11 $end
$var wire 10 N58 io_out_tag $end
$var wire 32 N63 io_out_bits $end
$var wire 1 N130 io_pcOut_bits_request $end
$var wire 16 N133 io_pcOut_bits_moduleId $end
$var wire 4 N136 io_pcOut_bits_pcType $end
$var wire 8 N139 io_pcOut_bits_portId $end
$var wire 20 N142 io_pcOut_bits_pcValue $end
$var wire 1 N145 io_pcOut_valid $end
$scope module RREncode_3 $end
$var wire 1 N22 io_valid_0 $end
$var wire 1 N23 io_chosen $end
$upscope $end
$scope module RREncode_4 $end
$var wire 1 N0 io_valid_0 $end
$var wire 1 N1 io_chosen $end
$upscope $end
$scope module RREncode_5 $end
$var wire 1 N26 io_valid_0 $end
$var wire 1 N27 io_chosen $end
$upscope $end
$upscope $end
$upscope $end
$upscope $end
$enddefinitions $end
$dumpvars
$end
#0
b0 N0
b1 N1
b00000000000000000000000000000000 N2
b0 N4
b0 N5
b1 N6
b1 N7
b0000000000000000 N8
b0000000000000000 N9
b0 N10
b0 N11
b1 N12
b0000000000000000 N13
b0000 N14
b0000 N15
b0000 N16
b00000000 N17
b00000000 N18
b00000000 N19
b1 N20
b1 N21
b1 N22
b0 N23
b0 N24
b10100 N25
b1 N26
b0 N27
b1 N28
b1 N29
b0 N30
b0 N31
b0 N32
b10100 N33
b10100 N34
b00000000000000000000 N35
b00000000 N36
b0000000000 N37
b0000000000 N38
b0000000000 N39
b0 N40
b00000000 N41
b0 N42
b00000000000000000000 N43
b00000000000000000000 N44
b00000000000000000000 N45
b00000000000000000000 N46
b0 N47
b00000000000000000000000000000000 N48
b00000000000000000000000000000000 N49
b00000000000000000000000000000000 N50
b00000000000000000000000000000000 N51
b1 N52
b0 N53
b0 N54
b0 N55
b0 N56
b00000000000000000000000000000000 N57
b0000000000 N58
b0000000000 N59
b0 N60
b0 N61
b1 N62
b00000000000000000000000000000000 N63
b00000000000000000000000000000000 N64
b00000000000000000000000000000000 N65
b0000000000 N66
b0000000000 N67
b0000000000 N68
b0000000000 N69
b0 N70
b0100 N71
b0100 N72
b0100 N73
b0 N74
b0 N75
b0 N76
b0 N77
b0 N78
b0 N79
b0 N80
b0 N81
b0 N82
b0 N83
b10100 N84
b1 N85
b10100 N86
b10100 N87
b1 N88
b00000000000000000000 N89
b00000000000000000000 N90
b00000000000000000000 N91
b0 N92
b00000000000000000000 N93
b00000000 N94
b00000000 N95
b00000000 N96
b0000000000000000 N97
b0000000000000000 N98
b0000000000000000 N99
b00000000000000000000 N100
b00000000000000000000 N101
b00000000000000000000 N102
b00000000000000000000 N103
b00000000 N104
b0 N105
b0 N106
b00000000000000000000000000000000 N107
b00000000 N108
b00000000 N109
b0 N110
b0 N111
b0 N112
b0100 N113
b0 N114
b0000000000000000 N115
b0 N116
b00000000000000000000000000000000 N117
b00000000000000000000000000000000 N118
b00000000000000000000000000000000 N119
b00000000000000000000000000000000 N120
b00000000000000000000000000000000 N121
b00000000000000000000000000000000 N122
b0 N123
b0 N124
b0000000000 N125
b0000000000 N126
b0000000000 N127
b1 N128
b1 N129
b1 N130
b1 N131
b1 N132
b0000000000000000 N133
b0000000000000000 N134
b0000000000000000 N135
b0000 N136
b0000 N137
b0000 N138
b00000000 N139
b00000000 N140
b00000000 N141
b00000000000000000000 N142
b00000000000000000000 N143
b00000000000000000000 N144
b0 N145
b0 N146
b0 N147
b00000000000000000000000000000000 N148
#1
b0 N6
b0 N7
b0 N12
b0100 N14
b0100 N15
b0100 N16
#2
b0 N130
b0 N131
b0 N132
b0100 N136
b0100 N137
b0100 N138
#3
#4
#5
b1 N74
b1 N75
b1 N76
b1 N77
b1 N78
b1 N79
b00000 N84
b00000 N86
b00000 N87
b1 N114
b1 N116
#6
b1 N6
b1 N7
b1 N10
b1 N11
b1 N12
b00000 N25
b00000 N33
b00000 N34
b1 N47
b0 N77
b0 N78
b0 N79
b0 N114
#7
b0 N10
b0 N11
b0 N47
b1 N130
b1 N131
b1 N132
b1 N145
b1 N146
b1 N147
#8
b00000000000000000000000000000001 N49
b00000000000000000000000000000001 N50
b00000000000000000000000000000001 N51
b1 N54
b1 N55
b1 N56
b00000000000000000000000000000001 N57
b1 N80
b1 N81
b1 N82
b00001 N86
b00000001 N109
b0 N145
b0 N146
b0 N147
#9
b00000000000000000000000000000000 N49
b00000000000000000000000000000000 N50
b00000000000000000000000000000000 N51
b0 N52
b1 N53
b0 N54
b0 N55
b0 N56
b0 N85
b00001 N87
b1 N112
b0 N128
b0 N129
#10
b0 N29
b1 N30
b0000000001 N37
b0000000001 N38
b00000000000000000000000000000010 N49
b00000000000000000000000000000010 N50
b00000000000000000000000000000010 N51
b1 N54
b1 N55
b1 N56
b1 N61
b0 N62
b00010 N87
b00000000000000000001 N93
b00000000000000000000000000001010 N107
b00000010 N109
b0 N112
#11
b1 N29
b0 N30
b0000000000 N37
b0000000000 N38
b00000000000000000000000000000000 N49
b00000000000000000000000000000000 N50
b00000000000000000000000000000000 N51
b0 N54
b0 N55
b0 N56
b0 N61
b1 N62
b00011 N87
b1 N112
#12
b0 N29
b1 N30
b0000000001 N37
b0000000001 N38
b00000000000000000000000000000010 N49
b00000000000000000000000000000010 N50
b00000000000000000000000000000010 N51
b1 N54
b1 N55
b1 N56
b1 N61
b0 N62
b00100 N87
b00000000000000000010 N93
b00000000000000000000000000001001 N107
b0 N112
#13
b1 N29
b0 N30
b0000000000 N37
b0000000000 N38
b00000000000000000000000000000000 N49
b00000000000000000000000000000000 N50
b00000000000000000000000000000000 N51
b0 N54
b0 N55
b0 N56
b0 N61
b1 N62
b00101 N87
b1 N112
#14
b0 N29
b1 N30
b0000000001 N37
b0000000001 N38
b00000000000000000000000000000010 N49
b00000000000000000000000000000010 N50
b00000000000000000000000000000010 N51
b1 N54
b1 N55
b1 N56
b1 N61
b0 N62
b00110 N87
b00000000000000000011 N93
b00000000000000000000000000001000 N107
b0 N112
#15
b1 N29
b0 N30
b0000000000 N37
b0000000000 N38
b00000000000000000000000000000000 N49
b00000000000000000000000000000000 N50
b00000000000000000000000000000000 N51
b0 N54
b0 N55
b0 N56
b0 N61
b1 N62
b00111 N87
b1 N112
#16
b0 N29
b1 N30
b0000000001 N37
b0000000001 N38
b00000000000000000000000000000010 N49
b00000000000000000000000000000010 N50
b00000000000000000000000000000010 N51
b1 N54
b1 N55
b1 N56
b1 N61
b0 N62
b01000 N87
b00000000000000000100 N93
b00000000000000000000000000000111 N107
b0 N112
#17
b1 N29
b0 N30
b0000000000 N37
b0000000000 N38
b00000000000000000000000000000000 N49
b00000000000000000000000000000000 N50
b00000000000000000000000000000000 N51
b0 N54
b0 N55
b0 N56
b0 N61
b1 N62
b01001 N87
b1 N112
#18
b0 N29
b1 N30
b0000000001 N37
b0000000001 N38
b00000000000000000000000000000010 N49
b00000000000000000000000000000010 N50
b00000000000000000000000000000010 N51
b1 N54
b1 N55
b1 N56
b1 N61
b0 N62
b01010 N87
b00000000000000000101 N93
b00000000000000000000000000000110 N107
b0 N112
#19
b1 N29
b0 N30
b0000000000 N37
b0000000000 N38
b00000000000000000000000000000000 N49
b00000000000000000000000000000000 N50
b00000000000000000000000000000000 N51
b0 N54
b0 N55
b0 N56
b0 N61
b1 N62
b01011 N87
b1 N112
#20
b0 N29
b1 N30
b0000000001 N37
b0000000001 N38
b00000000000000000000000000000010 N49
b00000000000000000000000000000010 N50
b00000000000000000000000000000010 N51
b1 N54
b1 N55
b1 N56
b1 N61
b0 N62
b01100 N87
b00000000000000000110 N93
b00000000000000000000000000000101 N107
b0 N112
#21
b1 N29
b0 N30
b0000000000 N37
b0000000000 N38
b00000000000000000000000000000000 N49
b00000000000000000000000000000000 N50
b00000000000000000000000000000000 N51
b0 N54
b0 N55
b0 N56
b0 N61
b1 N62
b01101 N87
b1 N112
#22
b0 N29
b1 N30
b0000000001 N37
b0000000001 N38
b00000000000000000000000000000010 N49
b00000000000000000000000000000010 N50
b00000000000000000000000000000010 N51
b1 N54
b1 N55
b1 N56
b1 N61
b0 N62
b01110 N87
b00000000000000000111 N93
b00000000000000000000000000000100 N107
b0 N112
#23
b1 N29
b0 N30
b0000000000 N37
b0000000000 N38
b00000000000000000000000000000000 N49
b00000000000000000000000000000000 N50
b00000000000000000000000000000000 N51
b0 N54
b0 N55
b0 N56
b0 N61
b1 N62
b01111 N87
b1 N112
#24
b0 N29
b1 N30
b0000000001 N37
b0000000001 N38
b00000000000000000000000000000010 N49
b00000000000000000000000000000010 N50
b00000000000000000000000000000010 N51
b1 N54
b1 N55
b1 N56
b1 N61
b0 N62
b10000 N87
b00000000000000001000 N93
b00000000000000000000000000000011 N107
b0 N112
#25
b1 N29
b0 N30
b0000000000 N37
b0000000000 N38
b00000000000000000000000000000000 N49
b00000000000000000000000000000000 N50
b00000000000000000000000000000000 N51
b0 N54
b0 N55
b0 N56
b0 N61
b1 N62
b10001 N87
b1 N112
#26
b0 N29
b1 N30
b0000000001 N37
b0000000001 N38
b00000000000000000000000000000010 N49
b00000000000000000000000000000010 N50
b00000000000000000000000000000010 N51
b1 N54
b1 N55
b1 N56
b1 N61
b0 N62
b10010 N87
b00000000000000001001 N93
b00000000000000000000000000000010 N107
b0 N112
#27
b1 N29
b0 N30
b0000000000 N37
b0000000000 N38
b00000000000000000000000000000000 N49
b00000000000000000000000000000000 N50
b00000000000000000000000000000000 N51
b0 N54
b0 N55
b0 N56
b0 N61
b1 N62
b10011 N87
b1 N112
#28
b0 N29
b1 N30
b0000000001 N37
b0000000001 N38
b00000000000000000000000000000010 N49
b00000000000000000000000000000010 N50
b00000000000000000000000000000010 N51
b1 N54
b1 N55
b1 N56
b1 N61
b0 N62
b10100 N87
b00000000000000001010 N93
b00000000000000000000000000000001 N107
b0 N112
#29
b1 N29
b0 N30
b0000000000 N37
b0000000000 N38
b00000000000000000000000000000000 N49
b00000000000000000000000000000000 N50
b00000000000000000000000000000000 N51
b0 N54
b0 N55
b0 N56
b0 N61
b1 N62
b10101 N87
b1 N112
#30
b0 N29
b1 N30
b0000000001 N37
b0000000001 N38
b00000000000000000000000000000010 N49
b00000000000000000000000000000010 N50
b00000000000000000000000000000010 N51
b1 N54
b1 N55
b1 N56
b1 N61
b0 N62
b10110 N87
b00000000000000001011 N93
b00000000000000000000000000000000 N107
b0 N112
#31
b1 N29
b0 N30
b0000000000 N37
b0000000000 N38
b00000000000000000000000000000000 N49
b00000000000000000000000000000000 N50
b00000000000000000000000000000000 N51
b0 N54
b0 N55
b0 N56
b0 N61
b1 N62
b10111 N87
b1 N112
#32
b0 N29
b1 N30
b0000000001 N37
b0000000001 N38
b00000000000000000000000000000010 N49
b00000000000000000000000000000010 N50
b00000000000000000000000000000010 N51
b1 N54
b1 N55
b1 N56
b1 N61
b0 N62
b11000 N87
b00000000000000001100 N93
b11111111111111111111111111111111 N107
b00000011 N109
b0 N112
#33
b1 N29
b0 N30
b1 N31
b1 N32
b00001 N33
b0000000000 N37
b0000000000 N38
b00000001 N41
b00000000000000000000000000000000 N49
b00000000000000000000000000000000 N50
b00000000000000000000000000000000 N51
b0 N54
b0 N55
b0 N56
b0 N61
b1 N62
b11001 N87
b00000000000000000001 N89
b1 N111
b1 N112
#34
b0 N26
b1 N27
b0 N28
b0 N29
b1 N30
b0 N31
b0 N32
b00001 N34
b0000000001 N37
b0000000001 N38
b1 N40
b00000000000000000000000000000010 N49
b00000000000000000000000000000010 N50
b00000000000000000000000000000010 N51
b1 N54
b1 N55
b1 N56
b11010 N87
b0 N88
b00000000000000001101 N93
#35
b1 N0
b0 N1
b00000000000000000000000000000010 N2
b0 N22
b1 N23
b00010 N34
b0 N40
b00000010 N41
b00000000000000000000000000000000 N49
b00000000000000000000000000000000 N50
b00000000000000000000000000000000 N51
b0 N54
b0 N55
b0 N56
b11011 N87
#36
b0 N0
b1 N1
b1 N22
b0 N23
b00011 N34
b1 N40
b00000000000000000000000000000010 N49
b00000000000000000000000000000010 N50
b00000000000000000000000000000010 N51
b1 N54
b1 N55
b1 N56
b00000000000000000000000000000010 N63
b00000000000000000000000000000010 N64
b11100 N87
b00000000000000001110 N93
#37
b1 N0
b0 N1
b0 N22
b1 N23
b00100 N34
b0 N40
b11111111 N41
b00000000000000000000000000000000 N49
b00000000000000000000000000000000 N50
b00000000000000000000000000000000 N51
b0 N54
b0 N55
b0 N56
b00000000000000000000000000000000 N63
b00000000000000000000000000000000 N64
b11101 N87
#38
b0 N0
b1 N1
b1 N22
b0 N23
b1 N24
b00001 N25
b00101 N34
b00000000 N41
b00000000000000000000000000000010 N49
b00000000000000000000000000000010 N50
b00000000000000000000000000000010 N51
b1 N54
b1 N55
b1 N56
b1 N60
b1 N61
b0 N62
b00000000000000000000000000000010 N63
b00000000000000000000000000000010 N64
b00000000000000000000000000000011 N65
b11110 N87
b00000000000000001111 N93
b11111111 N109
b0 N111
b0 N112
#39
b0 N24
b1 N26
b0 N27
b1 N28
b1 N29
b0 N30
b0000000000 N37
b0000000000 N38
b00000000000000000000000000000000 N49
b00000000000000000000000000000000 N50
b00000000000000000000000000000000 N51
b0 N54
b0 N55
b0 N56
b0 N60
b0 N61
b1 N62
b1 N83
b00001 N84
b11111 N87
b1 N88
b00000000 N109
b00000000000000000000000000000011 N120
b00000000000000000000000000000011 N121
b00000000000000000000000000000011 N122
b1 N123
b1 N124
#40
b00000000000000000000000000000010 N49
b00000000000000000000000000000010 N50
b00000000000000000000000000000010 N51
b1 N52
b0 N53
b1 N54
b1 N55
b1 N56
b00000000000000000000000000000010 N57
b0 N83
b1 N85
b00010 N86
b00000001 N109
b0 N123
b0 N124
b1 N128
b1 N129
#41
b00000000000000000000000000000000 N49
b00000000000000000000000000000000 N50
b00000000000000000000000000000000 N51
b0 N52
b1 N53
b0 N54
b0 N55
b0 N56
b0 N85
b00000 N87
b1 N112
b0 N128
b0 N129
#42
b0 N29
b1 N30
b0000000001 N37
b0000000001 N38
b00000000000000000000000000000100 N49
b00000000000000000000000000000100 N50
b00000000000000000000000000000100 N51
b1 N54
b1 N55
b1 N56
b1 N61
b0 N62
b00001 N87
b00000000000000010000 N93
b00000000000000000000000000001010 N107
b00000010 N109
b0 N112
b00000000000000000000000000000000 N120
b00000000000000000000000000000000 N121
b00000000000000000000000000000000 N122
#43
b1 N29
b0 N30
b0000000000 N37
b0000000000 N38
b00000000000000000000000000000000 N49
b00000000000000000000000000000000 N50
b00000000000000000000000000000000 N51
b0 N54
b0 N55
b0 N56
b0 N61
b1 N62
b00010 N87
b1 N112
b00000000000000000000000000000011 N120
b00000000000000000000000000000011 N121
b00000000000000000000000000000011 N122
#44
b0 N29
b1 N30
b0000000001 N37
b0000000001 N38
b00000000000000000000000000000100 N49
b00000000000000000000000000000100 N50
b00000000000000000000000000000100 N51
b1 N54
b1 N55
b1 N56
b1 N61
b0 N62
b00011 N87
b00000000000000010001 N93
b00000000000000000000000000001001 N107
b0 N112
b00000000000000000000000000000000 N120
b00000000000000000000000000000000 N121
b00000000000000000000000000000000 N122
#45
b1 N29
b0 N30
b0000000000 N37
b0000000000 N38
b00000000000000000000000000000000 N49
b00000000000000000000000000000000 N50
b00000000000000000000000000000000 N51
b0 N54
b0 N55
b0 N56
b0 N61
b1 N62
b00100 N87
b1 N112
b00000000000000000000000000000011 N120
b00000000000000000000000000000011 N121
b00000000000000000000000000000011 N122
#46
b0 N29
b1 N30
b0000000001 N37
b0000000001 N38
b00000000000000000000000000000100 N49
b00000000000000000000000000000100 N50
b00000000000000000000000000000100 N51
b1 N54
b1 N55
b1 N56
b1 N61
b0 N62
b00101 N87
b00000000000000010010 N93
b00000000000000000000000000001000 N107
b0 N112
b00000000000000000000000000000000 N120
b00000000000000000000000000000000 N121
b00000000000000000000000000000000 N122
#47
b1 N29
b0 N30
b0000000000 N37
b0000000000 N38
b00000000000000000000000000000000 N49
b00000000000000000000000000000000 N50
b00000000000000000000000000000000 N51
b0 N54
b0 N55
b0 N56
b0 N61
b1 N62
b00110 N87
b1 N112
b00000000000000000000000000000011 N120
b00000000000000000000000000000011 N121
b00000000000000000000000000000011 N122
#48
b0 N29
b1 N30
b0000000001 N37
b0000000001 N38
b00000000000000000000000000000100 N49
b00000000000000000000000000000100 N50
b00000000000000000000000000000100 N51
b1 N54
b1 N55
b1 N56
b1 N61
b0 N62
b00111 N87
b00000000000000010011 N93
b00000000000000000000000000000111 N107
b0 N112
b00000000000000000000000000000000 N120
b00000000000000000000000000000000 N121
b00000000000000000000000000000000 N122
#49
b1 N29
b0 N30
b0000000000 N37
b0000000000 N38
b00000000000000000000000000000000 N49
b00000000000000000000000000000000 N50
b00000000000000000000000000000000 N51
b0 N54
b0 N55
b0 N56
b0 N61
b1 N62
b01000 N87
b1 N112
b00000000000000000000000000000011 N120
b00000000000000000000000000000011 N121
b00000000000000000000000000000011 N122
#50
b0 N29
b1 N30
b0000000001 N37
b0000000001 N38
b00000000000000000000000000000100 N49
b00000000000000000000000000000100 N50
b00000000000000000000000000000100 N51
b1 N54
b1 N55
b1 N56
b1 N61
b0 N62
b01001 N87
b00000000000000010100 N93
b00000000000000000000000000000110 N107
b0 N112
b00000000000000000000000000000000 N120
b00000000000000000000000000000000 N121
b00000000000000000000000000000000 N122
#51
b1 N29
b0 N30
b0000000000 N37
b0000000000 N38
b00000000000000000000000000000000 N49
b00000000000000000000000000000000 N50
b00000000000000000000000000000000 N51
b0 N54
b0 N55
b0 N56
b0 N61
b1 N62
b01010 N87
b1 N112
b00000000000000000000000000000011 N120
b00000000000000000000000000000011 N121
b00000000000000000000000000000011 N122
#52
b0 N29
b1 N30
b0000000001 N37
b0000000001 N38
b00000000000000000000000000000100 N49
b00000000000000000000000000000100 N50
b00000000000000000000000000000100 N51
b1 N54
b1 N55
b1 N56
b1 N61
b0 N62
b01011 N87
b00000000000000010101 N93
b00000000000000000000000000000101 N107
b0 N112
b00000000000000000000000000000000 N120
b00000000000000000000000000000000 N121
b00000000000000000000000000000000 N122
#53
b1 N29
b0 N30
b0000000000 N37
b0000000000 N38
b00000000000000000000000000000000 N49
b00000000000000000000000000000000 N50
b00000000000000000000000000000000 N51
b0 N54
b0 N55
b0 N56
b0 N61
b1 N62
b01100 N87
b1 N112
b00000000000000000000000000000011 N120
b00000000000000000000000000000011 N121
b00000000000000000000000000000011 N122
#54
b0 N29
b1 N30
b0000000001 N37
b0000000001 N38
b00000000000000000000000000000100 N49
b00000000000000000000000000000100 N50
b00000000000000000000000000000100 N51
b1 N54
b1 N55
b1 N56
b1 N61
b0 N62
b01101 N87
b00000000000000010110 N93
b00000000000000000000000000000100 N107
b0 N112
b00000000000000000000000000000000 N120
b00000000000000000000000000000000 N121
b00000000000000000000000000000000 N122
#55
b1 N29
b0 N30
b0000000000 N37
b0000000000 N38
b00000000000000000000000000000000 N49
b00000000000000000000000000000000 N50
b00000000000000000000000000000000 N51
b0 N54
b0 N55
b0 N56
b0 N61
b1 N62
b01110 N87
b1 N112
b00000000000000000000000000000011 N120
b00000000000000000000000000000011 N121
b00000000000000000000000000000011 N122
#56
b0 N29
b1 N30
b0000000001 N37
b0000000001 N38
b00000000000000000000000000000100 N49
b00000000000000000000000000000100 N50
b00000000000000000000000000000100 N51
b1 N54
b1 N55
b1 N56
b1 N61
b0 N62
b01111 N87
b00000000000000010111 N93
b00000000000000000000000000000011 N107
b0 N112
b00000000000000000000000000000000 N120
b00000000000000000000000000000000 N121
b00000000000000000000000000000000 N122
#57
b1 N29
b0 N30
b0000000000 N37
b0000000000 N38
b00000000000000000000000000000000 N49
b00000000000000000000000000000000 N50
b00000000000000000000000000000000 N51
b0 N54
b0 N55
b0 N56
b0 N61
b1 N62
b10000 N87
b1 N112
b00000000000000000000000000000011 N120
b00000000000000000000000000000011 N121
b00000000000000000000000000000011 N122
#58
b0 N29
b1 N30
b0000000001 N37
b0000000001 N38
b00000000000000000000000000000100 N49
b00000000000000000000000000000100 N50
b00000000000000000000000000000100 N51
b1 N54
b1 N55
b1 N56
b1 N61
b0 N62
b10001 N87
b00000000000000011000 N93
b00000000000000000000000000000010 N107
b0 N112
b00000000000000000000000000000000 N120
b00000000000000000000000000000000 N121
b00000000000000000000000000000000 N122
#59
b1 N29
b0 N30
b0000000000 N37
b0000000000 N38
b00000000000000000000000000000000 N49
b00000000000000000000000000000000 N50
b00000000000000000000000000000000 N51
b0 N54
b0 N55
b0 N56
b0 N61
b1 N62
b10010 N87
b1 N112
b00000000000000000000000000000011 N120
b00000000000000000000000000000011 N121
b00000000000000000000000000000011 N122
#60
b0 N29
b1 N30
b0000000001 N37
b0000000001 N38
b00000000000000000000000000000100 N49
b00000000000000000000000000000100 N50
b00000000000000000000000000000100 N51
b1 N54
b1 N55
b1 N56
b1 N61
b0 N62
b10011 N87
b00000000000000011001 N93
b00000000000000000000000000000001 N107
b0 N112
b00000000000000000000000000000000 N120
b00000000000000000000000000000000 N121
b00000000000000000000000000000000 N122
#61
b1 N29
b0 N30
b0000000000 N37
b0000000000 N38
b00000000000000000000000000000000 N49
b00000000000000000000000000000000 N50
b00000000000000000000000000000000 N51
b0 N54
b0 N55
b0 N56
b0 N61
b1 N62
b10100 N87
b1 N112
b00000000000000000000000000000011 N120
b00000000000000000000000000000011 N121
b00000000000000000000000000000011 N122
#62
b0 N29
b1 N30
b0000000001 N37
b0000000001 N38
b00000000000000000000000000000100 N49
b00000000000000000000000000000100 N50
b00000000000000000000000000000100 N51
b1 N54
b1 N55
b1 N56
b1 N61
b0 N62
b10101 N87
b00000000000000011010 N93
b00000000000000000000000000000000 N107
b0 N112
b00000000000000000000000000000000 N120
b00000000000000000000000000000000 N121
b00000000000000000000000000000000 N122
#63
b1 N29
b0 N30
b0000000000 N37
b0000000000 N38
b00000000000000000000000000000000 N49
b00000000000000000000000000000000 N50
b00000000000000000000000000000000 N51
b0 N54
b0 N55
b0 N56
b0 N61
b1 N62
b10110 N87
b1 N112
b00000000000000000000000000000011 N120
b00000000000000000000000000000011 N121
b00000000000000000000000000000011 N122
#64
b0 N29
b1 N30
b0000000001 N37
b0000000001 N38
b00000000000000000000000000000100 N49
b00000000000000000000000000000100 N50
b00000000000000000000000000000100 N51
b1 N54
b1 N55
b1 N56
b1 N61
b0 N62
b10111 N87
b00000000000000011011 N93
b11111111111111111111111111111111 N107
b00000011 N109
b0 N112
b00000000000000000000000000000000 N120
b00000000000000000000000000000000 N121
b00000000000000000000000000000000 N122
#65
b1 N29
b0 N30
b1 N31
b1 N32
b00010 N33
b0000000000 N37
b0000000000 N38
b00000001 N41
b00000000000000000000000000000000 N49
b00000000000000000000000000000000 N50
b00000000000000000000000000000000 N51
b0 N54
b0 N55
b0 N56
b0 N61
b1 N62
b11000 N87
b00000000000000000010 N89
b1 N111
b1 N112
b00000000000000000000000000000011 N120
b00000000000000000000000000000011 N121
b00000000000000000000000000000011 N122
#66
b0 N26
b1 N27
b0 N28
b0 N29
b1 N30
b0 N31
b0 N32
b00110 N34
b0000000001 N37
b0000000001 N38
b1 N40
b00000000000000000000000000000100 N49
b00000000000000000000000000000100 N50
b00000000000000000000000000000100 N51
b1 N54
b1 N55
b1 N56
b11001 N87
b0 N88
b00000000000000011100 N93
b00000000000000000000000000000000 N120
b00000000000000000000000000000000 N121
b00000000000000000000000000000000 N122
#67
b1 N0
b0 N1
b0 N22
b1 N23
b00111 N34
b0 N40
b00000010 N41
b00000000000000000000000000000000 N49
b00000000000000000000000000000000 N50
b00000000000000000000000000000000 N51
b0 N54
b0 N55
b0 N56
b00000000000000000000000000000000 N63
b00000000000000000000000000000000 N64
b11010 N87
